EESchema Schematic File Version 4
LIBS:CAN_extension-cache
EELAYER 26 0
EELAYER END
$Descr A4 11693 8268
encoding utf-8
Sheet 1 1
Title "CAN Extension"
Date "2019-02-11"
Rev "0.1"
Comp "ATeam"
Comment1 ""
Comment2 ""
Comment3 ""
Comment4 ""
$EndDescr
$Comp
L Connector:DB9_Male J2
U 1 1 5C6280E8
P 8050 1450
F 0 "J2" H 7970 758 50  0000 C CNN
F 1 "DB9_Male_2" H 7970 849 50  0000 C CNN
F 2 "Connector_Dsub:DSUB-9_Male_Horizontal_P2.77x2.84mm_EdgePinOffset9.90mm_Housed_MountingHolesOffset11.32mm" H 8050 1450 50  0001 C CNN
F 3 " ~" H 8050 1450 50  0001 C CNN
	1    8050 1450
	1    0    0    -1  
$EndComp
Wire Wire Line
	7750 1650 7400 1650
Text Label 7400 1650 0    50   ~ 0
CAN_N
Wire Wire Line
	7750 1550 7400 1550
Text Label 7400 1550 0    50   ~ 0
CAN_P
Wire Wire Line
	7750 1450 7250 1450
Wire Wire Line
	7750 1750 7250 1750
Wire Wire Line
	7250 1450 7250 1750
$Comp
L power:GND #PWR0101
U 1 1 5C62863A
P 7250 1750
F 0 "#PWR0101" H 7250 1500 50  0001 C CNN
F 1 "GND" H 7255 1577 50  0000 C CNN
F 2 "" H 7250 1750 50  0001 C CNN
F 3 "" H 7250 1750 50  0001 C CNN
	1    7250 1750
	1    0    0    -1  
$EndComp
Connection ~ 7250 1750
$Comp
L Connector:DB9_Male J3
U 1 1 5C62871E
P 8050 2800
F 0 "J3" H 7970 2108 50  0000 C CNN
F 1 "DB9_Male_1" H 7970 2199 50  0000 C CNN
F 2 "Connector_Dsub:DSUB-9_Male_Horizontal_P2.77x2.84mm_EdgePinOffset9.90mm_Housed_MountingHolesOffset11.32mm" H 8050 2800 50  0001 C CNN
F 3 " ~" H 8050 2800 50  0001 C CNN
	1    8050 2800
	1    0    0    -1  
$EndComp
Wire Wire Line
	7750 3000 7400 3000
Text Label 7400 3000 0    50   ~ 0
CAN_N
Wire Wire Line
	7750 2900 7400 2900
Text Label 7400 2900 0    50   ~ 0
CAN_P
Wire Wire Line
	7750 2800 7250 2800
Wire Wire Line
	7750 3100 7250 3100
Wire Wire Line
	7250 2800 7250 3100
$Comp
L power:GND #PWR0102
U 1 1 5C62872C
P 7250 3100
F 0 "#PWR0102" H 7250 2850 50  0001 C CNN
F 1 "GND" H 7255 2927 50  0000 C CNN
F 2 "" H 7250 3100 50  0001 C CNN
F 3 "" H 7250 3100 50  0001 C CNN
	1    7250 3100
	1    0    0    -1  
$EndComp
Connection ~ 7250 3100
$Comp
L Connector:DB9_Male J4
U 1 1 5C6287FE
P 8050 4150
F 0 "J4" H 7970 3458 50  0000 C CNN
F 1 "DB9_Male_0" H 7970 3549 50  0000 C CNN
F 2 "Connector_Dsub:DSUB-9_Male_Horizontal_P2.77x2.84mm_EdgePinOffset9.90mm_Housed_MountingHolesOffset11.32mm" H 8050 4150 50  0001 C CNN
F 3 " ~" H 8050 4150 50  0001 C CNN
	1    8050 4150
	1    0    0    -1  
$EndComp
Wire Wire Line
	7750 4350 7400 4350
Text Label 7400 4350 0    50   ~ 0
CAN_N
Wire Wire Line
	7750 4250 7400 4250
Text Label 7400 4250 0    50   ~ 0
CAN_P
Wire Wire Line
	7750 4150 7250 4150
Wire Wire Line
	7750 4450 7250 4450
Wire Wire Line
	7250 4150 7250 4450
$Comp
L power:GND #PWR0103
U 1 1 5C62880C
P 7250 4450
F 0 "#PWR0103" H 7250 4200 50  0001 C CNN
F 1 "GND" H 7255 4277 50  0000 C CNN
F 2 "" H 7250 4450 50  0001 C CNN
F 3 "" H 7250 4450 50  0001 C CNN
	1    7250 4450
	1    0    0    -1  
$EndComp
Connection ~ 7250 4450
$Comp
L Device:R R1
U 1 1 5C63FC50
P 6750 5150
F 0 "R1" H 6820 5196 50  0000 L CNN
F 1 "120_Ohm" H 6820 5105 50  0000 L CNN
F 2 "Resistor_THT:R_Axial_DIN0204_L3.6mm_D1.6mm_P7.62mm_Horizontal" V 6680 5150 50  0001 C CNN
F 3 "~" H 6750 5150 50  0001 C CNN
	1    6750 5150
	1    0    0    -1  
$EndComp
Wire Wire Line
	6750 5300 5800 5300
Text Label 5800 5300 0    50   ~ 0
CAN_N
Wire Wire Line
	6150 4900 5800 4900
Text Label 5800 4900 0    50   ~ 0
CAN_P
$Comp
L Device:Jumper JP1
U 1 1 5C649190
P 6450 4900
F 0 "JP1" H 6450 5164 50  0000 C CNN
F 1 "Termination_Jumper" H 6450 5073 50  0000 C CNN
F 2 "Connector_PinHeader_2.54mm:PinHeader_1x02_P2.54mm_Vertical" H 6450 4900 50  0001 C CNN
F 3 "~" H 6450 4900 50  0001 C CNN
	1    6450 4900
	1    0    0    -1  
$EndComp
Wire Wire Line
	6750 4900 6750 5000
$Comp
L Connector:Barrel_Jack_MountingPin J5
U 1 1 5CC448F8
P 4500 1350
F 0 "J5" H 4555 1667 50  0000 C CNN
F 1 "Barrel_Jack_MountingPin" H 4555 1576 50  0000 C CNN
F 2 "Connector_BarrelJack:BarrelJack_Horizontal" H 4550 1310 50  0001 C CNN
F 3 "~" H 4550 1310 50  0001 C CNN
	1    4500 1350
	1    0    0    -1  
$EndComp
$Comp
L power:GND #PWR0104
U 1 1 5CC44972
P 5150 1450
F 0 "#PWR0104" H 5150 1200 50  0001 C CNN
F 1 "GND" H 5155 1277 50  0000 C CNN
F 2 "" H 5150 1450 50  0001 C CNN
F 3 "" H 5150 1450 50  0001 C CNN
	1    5150 1450
	1    0    0    -1  
$EndComp
Wire Wire Line
	4800 1450 5150 1450
NoConn ~ 4500 1650
$Comp
L power:+12V #PWR0105
U 1 1 5CC4554A
P 5150 1250
F 0 "#PWR0105" H 5150 1100 50  0001 C CNN
F 1 "+12V" H 5165 1423 50  0000 C CNN
F 2 "" H 5150 1250 50  0001 C CNN
F 3 "" H 5150 1250 50  0001 C CNN
	1    5150 1250
	1    0    0    -1  
$EndComp
Wire Wire Line
	4800 1250 5150 1250
$Comp
L power:+12V #PWR0106
U 1 1 5CC45EF1
P 7600 1150
F 0 "#PWR0106" H 7600 1000 50  0001 C CNN
F 1 "+12V" H 7615 1323 50  0000 C CNN
F 2 "" H 7600 1150 50  0001 C CNN
F 3 "" H 7600 1150 50  0001 C CNN
	1    7600 1150
	1    0    0    -1  
$EndComp
Wire Wire Line
	7600 1150 7750 1150
$Comp
L power:+12V #PWR0107
U 1 1 5CC463CC
P 7600 2500
F 0 "#PWR0107" H 7600 2350 50  0001 C CNN
F 1 "+12V" H 7615 2673 50  0000 C CNN
F 2 "" H 7600 2500 50  0001 C CNN
F 3 "" H 7600 2500 50  0001 C CNN
	1    7600 2500
	1    0    0    -1  
$EndComp
Wire Wire Line
	7600 2500 7750 2500
$Comp
L Connector:DB9_Female J1
U 1 1 5CC46ED0
P 5250 2800
F 0 "J1" H 5170 2108 50  0000 C CNN
F 1 "DB9_Female_dSPACE" H 5170 2199 50  0000 C CNN
F 2 "Connector_Dsub:DSUB-9_Female_Horizontal_P2.77x2.84mm_EdgePinOffset9.90mm_Housed_MountingHolesOffset11.32mm" H 5250 2800 50  0001 C CNN
F 3 " ~" H 5250 2800 50  0001 C CNN
	1    5250 2800
	-1   0    0    1   
$EndComp
Wire Wire Line
	5550 2900 5900 2900
Text Label 5900 2900 2    50   ~ 0
CAN_P
Wire Wire Line
	5550 3000 5900 3000
Text Label 5900 3000 2    50   ~ 0
CAN_N
Wire Wire Line
	5550 3100 6050 3100
Wire Wire Line
	5550 2800 6050 2800
Wire Wire Line
	6050 3100 6050 2800
$Comp
L power:GND #PWR0108
U 1 1 5CC474E4
P 6050 3100
F 0 "#PWR0108" H 6050 2850 50  0001 C CNN
F 1 "GND" H 6055 2927 50  0000 C CNN
F 2 "" H 6050 3100 50  0001 C CNN
F 3 "" H 6050 3100 50  0001 C CNN
	1    6050 3100
	1    0    0    -1  
$EndComp
Connection ~ 6050 3100
$Comp
L power:+12V #PWR?
U 1 1 5CC46F2A
P 7600 3850
F 0 "#PWR?" H 7600 3700 50  0001 C CNN
F 1 "+12V" H 7615 4023 50  0000 C CNN
F 2 "" H 7600 3850 50  0001 C CNN
F 3 "" H 7600 3850 50  0001 C CNN
	1    7600 3850
	1    0    0    -1  
$EndComp
Wire Wire Line
	7600 3850 7750 3850
$EndSCHEMATC
