PCBNEW-LibModule-V1  
# encoding utf-8
Units mm
$INDEX
QFP50P1200X1200X120-64N
$EndINDEX
$MODULE QFP50P1200X1200X120-64N
Po 0 0 0 15 00000000 00000000 ~~
Li QFP50P1200X1200X120-64N
Cd 
Sc 00000000
At SMD
Op 0 0 0
.SolderMask 0
.SolderPaste 0
T0 -2.76 -7.435 1 1 0 0.05 N V 21 "QFP50P1200X1200X120-64N"
T1 -1.925 7.565 1 1 0 0.05 N V 21 "VAL**"
DS -5 5 -5 -5 0.127 24
DS -5 -5 5 -5 0.127 24
DS 5 -5 5 5 0.127 24
DS 5 5 -5 5 0.127 24
DS -5 -4.25 -5 -5 0.127 21
DS -5 -5 -4.25 -5 0.127 21
DS 4.25 -5 5 -5 0.127 21
DS 5 -5 5 -4.25 0.127 21
DS -5 4.25 -5 5 0.127 21
DS -5 5 -4.25 5 0.127 21
DS 4.25 5 5 5 0.127 21
DS 5 5 5 4.25 0.127 21
DS -5.25 -5.25 -4.14 -5.25 0.05 26
DS -4.14 -5.25 -4.14 -6.66 0.05 26
DS -4.14 -6.66 4.14 -6.66 0.05 26
DS 4.14 -6.66 4.14 -5.25 0.05 26
DS 4.14 -5.25 5.25 -5.25 0.05 26
DS -5.25 5.25 -5.25 4.14 0.05 26
DS -5.25 4.14 -6.66 4.14 0.05 26
DS -6.66 4.14 -6.66 -4.14 0.05 26
DS -6.66 -4.14 -5.25 -4.14 0.05 26
DS -5.25 -4.14 -5.25 -5.25 0.05 26
DS 5.25 5.25 4.14 5.25 0.05 26
DS 4.14 5.25 4.14 6.66 0.05 26
DS 4.14 6.66 -4.14 6.66 0.05 26
DS -4.14 6.66 -4.14 5.25 0.05 26
DS -4.14 5.25 -5.25 5.25 0.05 26
DS 5.25 -5.25 5.25 -4.14 0.05 26
DS 5.25 -4.14 6.66 -4.14 0.05 26
DS 6.66 -4.14 6.66 4.14 0.05 26
DS 6.66 4.14 5.25 4.14 0.05 26
DS 5.25 4.14 5.25 5.25 0.05 26
DC -7 -3.8 -6.9 -3.8 0.2 21
DC -7 -3.8 -6.9 -3.8 0.2 24
$PAD
Sh "1" R 1.47 0.28 0 0 0
At SMD N 00888000
.SolderMask 0
.SolderPaste 0
Ne 0 ""
Po -5.67 -3.75
$EndPAD
$PAD
Sh "2" R 1.47 0.28 0 0 0
At SMD N 00888000
.SolderMask 0
.SolderPaste 0
Ne 0 ""
Po -5.67 -3.25
$EndPAD
$PAD
Sh "3" R 1.47 0.28 0 0 0
At SMD N 00888000
.SolderMask 0
.SolderPaste 0
Ne 0 ""
Po -5.67 -2.75
$EndPAD
$PAD
Sh "4" R 1.47 0.28 0 0 0
At SMD N 00888000
.SolderMask 0
.SolderPaste 0
Ne 0 ""
Po -5.67 -2.25
$EndPAD
$PAD
Sh "5" R 1.47 0.28 0 0 0
At SMD N 00888000
.SolderMask 0
.SolderPaste 0
Ne 0 ""
Po -5.67 -1.75
$EndPAD
$PAD
Sh "6" R 1.47 0.28 0 0 0
At SMD N 00888000
.SolderMask 0
.SolderPaste 0
Ne 0 ""
Po -5.67 -1.25
$EndPAD
$PAD
Sh "7" R 1.47 0.28 0 0 0
At SMD N 00888000
.SolderMask 0
.SolderPaste 0
Ne 0 ""
Po -5.67 -0.75
$EndPAD
$PAD
Sh "8" R 1.47 0.28 0 0 0
At SMD N 00888000
.SolderMask 0
.SolderPaste 0
Ne 0 ""
Po -5.67 -0.25
$EndPAD
$PAD
Sh "9" R 1.47 0.28 0 0 0
At SMD N 00888000
.SolderMask 0
.SolderPaste 0
Ne 0 ""
Po -5.67 0.25
$EndPAD
$PAD
Sh "10" R 1.47 0.28 0 0 0
At SMD N 00888000
.SolderMask 0
.SolderPaste 0
Ne 0 ""
Po -5.67 0.75
$EndPAD
$PAD
Sh "11" R 1.47 0.28 0 0 0
At SMD N 00888000
.SolderMask 0
.SolderPaste 0
Ne 0 ""
Po -5.67 1.25
$EndPAD
$PAD
Sh "12" R 1.47 0.28 0 0 0
At SMD N 00888000
.SolderMask 0
.SolderPaste 0
Ne 0 ""
Po -5.67 1.75
$EndPAD
$PAD
Sh "13" R 1.47 0.28 0 0 0
At SMD N 00888000
.SolderMask 0
.SolderPaste 0
Ne 0 ""
Po -5.67 2.25
$EndPAD
$PAD
Sh "14" R 1.47 0.28 0 0 0
At SMD N 00888000
.SolderMask 0
.SolderPaste 0
Ne 0 ""
Po -5.67 2.75
$EndPAD
$PAD
Sh "15" R 1.47 0.28 0 0 0
At SMD N 00888000
.SolderMask 0
.SolderPaste 0
Ne 0 ""
Po -5.67 3.25
$EndPAD
$PAD
Sh "16" R 1.47 0.28 0 0 0
At SMD N 00888000
.SolderMask 0
.SolderPaste 0
Ne 0 ""
Po -5.67 3.75
$EndPAD
$PAD
Sh "17" R 1.47 0.28 0 0 900
At SMD N 00888000
.SolderMask 0
.SolderPaste 0
Ne 0 ""
Po -3.75 5.67
$EndPAD
$PAD
Sh "18" R 1.47 0.28 0 0 900
At SMD N 00888000
.SolderMask 0
.SolderPaste 0
Ne 0 ""
Po -3.25 5.67
$EndPAD
$PAD
Sh "19" R 1.47 0.28 0 0 900
At SMD N 00888000
.SolderMask 0
.SolderPaste 0
Ne 0 ""
Po -2.75 5.67
$EndPAD
$PAD
Sh "20" R 1.47 0.28 0 0 900
At SMD N 00888000
.SolderMask 0
.SolderPaste 0
Ne 0 ""
Po -2.25 5.67
$EndPAD
$PAD
Sh "21" R 1.47 0.28 0 0 900
At SMD N 00888000
.SolderMask 0
.SolderPaste 0
Ne 0 ""
Po -1.75 5.67
$EndPAD
$PAD
Sh "22" R 1.47 0.28 0 0 900
At SMD N 00888000
.SolderMask 0
.SolderPaste 0
Ne 0 ""
Po -1.25 5.67
$EndPAD
$PAD
Sh "23" R 1.47 0.28 0 0 900
At SMD N 00888000
.SolderMask 0
.SolderPaste 0
Ne 0 ""
Po -0.75 5.67
$EndPAD
$PAD
Sh "24" R 1.47 0.28 0 0 900
At SMD N 00888000
.SolderMask 0
.SolderPaste 0
Ne 0 ""
Po -0.25 5.67
$EndPAD
$PAD
Sh "25" R 1.47 0.28 0 0 900
At SMD N 00888000
.SolderMask 0
.SolderPaste 0
Ne 0 ""
Po 0.25 5.67
$EndPAD
$PAD
Sh "26" R 1.47 0.28 0 0 900
At SMD N 00888000
.SolderMask 0
.SolderPaste 0
Ne 0 ""
Po 0.75 5.67
$EndPAD
$PAD
Sh "27" R 1.47 0.28 0 0 900
At SMD N 00888000
.SolderMask 0
.SolderPaste 0
Ne 0 ""
Po 1.25 5.67
$EndPAD
$PAD
Sh "28" R 1.47 0.28 0 0 900
At SMD N 00888000
.SolderMask 0
.SolderPaste 0
Ne 0 ""
Po 1.75 5.67
$EndPAD
$PAD
Sh "29" R 1.47 0.28 0 0 900
At SMD N 00888000
.SolderMask 0
.SolderPaste 0
Ne 0 ""
Po 2.25 5.67
$EndPAD
$PAD
Sh "30" R 1.47 0.28 0 0 900
At SMD N 00888000
.SolderMask 0
.SolderPaste 0
Ne 0 ""
Po 2.75 5.67
$EndPAD
$PAD
Sh "31" R 1.47 0.28 0 0 900
At SMD N 00888000
.SolderMask 0
.SolderPaste 0
Ne 0 ""
Po 3.25 5.67
$EndPAD
$PAD
Sh "32" R 1.47 0.28 0 0 900
At SMD N 00888000
.SolderMask 0
.SolderPaste 0
Ne 0 ""
Po 3.75 5.67
$EndPAD
$PAD
Sh "33" R 1.47 0.28 0 0 1800
At SMD N 00888000
.SolderMask 0
.SolderPaste 0
Ne 0 ""
Po 5.67 3.75
$EndPAD
$PAD
Sh "34" R 1.47 0.28 0 0 1800
At SMD N 00888000
.SolderMask 0
.SolderPaste 0
Ne 0 ""
Po 5.67 3.25
$EndPAD
$PAD
Sh "35" R 1.47 0.28 0 0 1800
At SMD N 00888000
.SolderMask 0
.SolderPaste 0
Ne 0 ""
Po 5.67 2.75
$EndPAD
$PAD
Sh "36" R 1.47 0.28 0 0 1800
At SMD N 00888000
.SolderMask 0
.SolderPaste 0
Ne 0 ""
Po 5.67 2.25
$EndPAD
$PAD
Sh "37" R 1.47 0.28 0 0 1800
At SMD N 00888000
.SolderMask 0
.SolderPaste 0
Ne 0 ""
Po 5.67 1.75
$EndPAD
$PAD
Sh "38" R 1.47 0.28 0 0 1800
At SMD N 00888000
.SolderMask 0
.SolderPaste 0
Ne 0 ""
Po 5.67 1.25
$EndPAD
$PAD
Sh "39" R 1.47 0.28 0 0 1800
At SMD N 00888000
.SolderMask 0
.SolderPaste 0
Ne 0 ""
Po 5.67 0.75
$EndPAD
$PAD
Sh "40" R 1.47 0.28 0 0 1800
At SMD N 00888000
.SolderMask 0
.SolderPaste 0
Ne 0 ""
Po 5.67 0.25
$EndPAD
$PAD
Sh "41" R 1.47 0.28 0 0 1800
At SMD N 00888000
.SolderMask 0
.SolderPaste 0
Ne 0 ""
Po 5.67 -0.25
$EndPAD
$PAD
Sh "42" R 1.47 0.28 0 0 1800
At SMD N 00888000
.SolderMask 0
.SolderPaste 0
Ne 0 ""
Po 5.67 -0.75
$EndPAD
$PAD
Sh "43" R 1.47 0.28 0 0 1800
At SMD N 00888000
.SolderMask 0
.SolderPaste 0
Ne 0 ""
Po 5.67 -1.25
$EndPAD
$PAD
Sh "44" R 1.47 0.28 0 0 1800
At SMD N 00888000
.SolderMask 0
.SolderPaste 0
Ne 0 ""
Po 5.67 -1.75
$EndPAD
$PAD
Sh "45" R 1.47 0.28 0 0 1800
At SMD N 00888000
.SolderMask 0
.SolderPaste 0
Ne 0 ""
Po 5.67 -2.25
$EndPAD
$PAD
Sh "46" R 1.47 0.28 0 0 1800
At SMD N 00888000
.SolderMask 0
.SolderPaste 0
Ne 0 ""
Po 5.67 -2.75
$EndPAD
$PAD
Sh "47" R 1.47 0.28 0 0 1800
At SMD N 00888000
.SolderMask 0
.SolderPaste 0
Ne 0 ""
Po 5.67 -3.25
$EndPAD
$PAD
Sh "48" R 1.47 0.28 0 0 1800
At SMD N 00888000
.SolderMask 0
.SolderPaste 0
Ne 0 ""
Po 5.67 -3.75
$EndPAD
$PAD
Sh "49" R 1.47 0.28 0 0 2700
At SMD N 00888000
.SolderMask 0
.SolderPaste 0
Ne 0 ""
Po 3.75 -5.67
$EndPAD
$PAD
Sh "50" R 1.47 0.28 0 0 2700
At SMD N 00888000
.SolderMask 0
.SolderPaste 0
Ne 0 ""
Po 3.25 -5.67
$EndPAD
$PAD
Sh "51" R 1.47 0.28 0 0 2700
At SMD N 00888000
.SolderMask 0
.SolderPaste 0
Ne 0 ""
Po 2.75 -5.67
$EndPAD
$PAD
Sh "52" R 1.47 0.28 0 0 2700
At SMD N 00888000
.SolderMask 0
.SolderPaste 0
Ne 0 ""
Po 2.25 -5.67
$EndPAD
$PAD
Sh "53" R 1.47 0.28 0 0 2700
At SMD N 00888000
.SolderMask 0
.SolderPaste 0
Ne 0 ""
Po 1.75 -5.67
$EndPAD
$PAD
Sh "54" R 1.47 0.28 0 0 2700
At SMD N 00888000
.SolderMask 0
.SolderPaste 0
Ne 0 ""
Po 1.25 -5.67
$EndPAD
$PAD
Sh "55" R 1.47 0.28 0 0 2700
At SMD N 00888000
.SolderMask 0
.SolderPaste 0
Ne 0 ""
Po 0.75 -5.67
$EndPAD
$PAD
Sh "56" R 1.47 0.28 0 0 2700
At SMD N 00888000
.SolderMask 0
.SolderPaste 0
Ne 0 ""
Po 0.25 -5.67
$EndPAD
$PAD
Sh "57" R 1.47 0.28 0 0 2700
At SMD N 00888000
.SolderMask 0
.SolderPaste 0
Ne 0 ""
Po -0.25 -5.67
$EndPAD
$PAD
Sh "58" R 1.47 0.28 0 0 2700
At SMD N 00888000
.SolderMask 0
.SolderPaste 0
Ne 0 ""
Po -0.75 -5.67
$EndPAD
$PAD
Sh "59" R 1.47 0.28 0 0 2700
At SMD N 00888000
.SolderMask 0
.SolderPaste 0
Ne 0 ""
Po -1.25 -5.67
$EndPAD
$PAD
Sh "60" R 1.47 0.28 0 0 2700
At SMD N 00888000
.SolderMask 0
.SolderPaste 0
Ne 0 ""
Po -1.75 -5.67
$EndPAD
$PAD
Sh "61" R 1.47 0.28 0 0 2700
At SMD N 00888000
.SolderMask 0
.SolderPaste 0
Ne 0 ""
Po -2.25 -5.67
$EndPAD
$PAD
Sh "62" R 1.47 0.28 0 0 2700
At SMD N 00888000
.SolderMask 0
.SolderPaste 0
Ne 0 ""
Po -2.75 -5.67
$EndPAD
$PAD
Sh "63" R 1.47 0.28 0 0 2700
At SMD N 00888000
.SolderMask 0
.SolderPaste 0
Ne 0 ""
Po -3.25 -5.67
$EndPAD
$PAD
Sh "64" R 1.47 0.28 0 0 2700
At SMD N 00888000
.SolderMask 0
.SolderPaste 0
Ne 0 ""
Po -3.75 -5.67
$EndPAD
$EndMODULE QFP50P1200X1200X120-64N
