EESchema Schematic File Version 4
LIBS:ATeam_ObjDetect_CAN-cache
EELAYER 26 0
EELAYER END
$Descr A4 11693 8268
encoding utf-8
Sheet 1 1
Title "LEDDAR CAN"
Date "2018-12-14"
Rev "1.0"
Comp "ATeam"
Comment1 ""
Comment2 ""
Comment3 ""
Comment4 ""
$EndDescr
Wire Wire Line
	2350 6750 2450 6750
$Comp
L Connector:Conn_ARM_JTAG_SWD_10 J1
U 1 1 5BF7EC0D
P 1600 2800
F 0 "J1" H 1160 2846 50  0000 R CNN
F 1 "Conn_ARM_JTAG_SWD_10" H 1500 3350 50  0000 R CNN
F 2 "Connector_PinHeader_2.54mm:PinHeader_2x05_P2.54mm_Vertical" H 1650 2250 50  0001 L TNN
F 3 "http://infocenter.arm.com/help/topic/com.arm.doc.faqs/attached/13634/cortex_debug_connectors.pdf" V 1250 1550 50  0001 C CNN
	1    1600 2800
	1    0    0    -1  
$EndComp
Wire Wire Line
	2350 6750 2350 6850
Wire Wire Line
	4650 6850 4700 6850
Wire Wire Line
	4700 6850 4700 6950
Wire Wire Line
	4650 6950 4700 6950
Wire Wire Line
	2450 6850 2350 6850
Wire Wire Line
	2450 6950 2350 6950
Wire Wire Line
	1600 3400 1600 3450
Wire Wire Line
	2100 2700 2200 2700
Wire Wire Line
	2200 2300 2200 2700
Wire Wire Line
	1500 3400 1500 3450
Wire Wire Line
	1500 3450 1550 3450
Wire Wire Line
	1600 2200 1600 2050
$Comp
L power:GND #PWR0104
U 1 1 5BF88957
P 1550 3450
F 0 "#PWR0104" H 1550 3200 50  0001 C CNN
F 1 "GND" H 1555 3277 50  0000 C CNN
F 2 "" H 1550 3450 50  0001 C CNN
F 3 "" H 1550 3450 50  0001 C CNN
	1    1550 3450
	1    0    0    -1  
$EndComp
Wire Wire Line
	2200 2050 2200 2100
Connection ~ 1550 3450
Wire Wire Line
	1550 3450 1600 3450
$Comp
L power:GND #PWR0102
U 1 1 5BF805C9
P 4700 6950
F 0 "#PWR0102" H 4700 6700 50  0001 C CNN
F 1 "GND" H 4705 6777 50  0000 C CNN
F 2 "" H 4700 6950 50  0001 C CNN
F 3 "" H 4700 6950 50  0001 C CNN
	1    4700 6950
	1    0    0    -1  
$EndComp
Connection ~ 4700 6950
Text Notes 7600 3150 0    50   ~ 0
CAN0: uC <> LEDDARs
Wire Wire Line
	3100 7150 3100 7550
Text Label 3100 7550 1    50   ~ 0
CAN0_TX
Wire Wire Line
	3700 7150 3700 7550
Text Label 3200 7550 1    50   ~ 0
CAN0_RX
Text Label 3700 7550 1    50   ~ 0
CAN1_TX
Text Label 3800 7550 1    50   ~ 0
CAN1_RX
$Comp
L power:GND #PWR0110
U 1 1 5BF9C9C8
P 2350 6950
F 0 "#PWR0110" H 2350 6700 50  0001 C CNN
F 1 "GND" H 2355 6777 50  0000 C CNN
F 2 "" H 2350 6950 50  0001 C CNN
F 3 "" H 2350 6950 50  0001 C CNN
	1    2350 6950
	1    0    0    -1  
$EndComp
Wire Wire Line
	2350 6850 2350 6950
Connection ~ 2350 6850
Connection ~ 2350 6950
$Comp
L Connector:DB9_Male J2
U 1 1 5BFA5128
P 9100 2300
F 0 "J2" H 9280 2346 50  0000 L CNN
F 1 "DB9_Male" H 9280 2255 50  0000 L CNN
F 2 "Connector_Dsub:DSUB-9_Male_Horizontal_P2.77x2.84mm_EdgePinOffset9.90mm_Housed_MountingHolesOffset11.32mm" H 9100 2300 50  0001 C CNN
F 3 " ~" H 9100 2300 50  0001 C CNN
	1    9100 2300
	1    0    0    -1  
$EndComp
$Comp
L Connector:Barrel_Jack_MountingPin J5
U 1 1 5C006395
P 2350 850
F 0 "J5" H 2405 1167 50  0000 C CNN
F 1 "Barrel_Jack_MountingPin" H 2250 1050 50  0000 C CNN
F 2 "Connector_BarrelJack:BarrelJack_Horizontal" H 2400 810 50  0001 C CNN
F 3 "~" H 2400 810 50  0001 C CNN
	1    2350 850 
	1    0    0    -1  
$EndComp
$Comp
L power:GND #PWR0118
U 1 1 5C008272
P 2650 1000
F 0 "#PWR0118" H 2650 750 50  0001 C CNN
F 1 "GND" H 2750 1000 50  0000 C CNN
F 2 "" H 2650 1000 50  0001 C CNN
F 3 "" H 2650 1000 50  0001 C CNN
	1    2650 1000
	1    0    0    -1  
$EndComp
Wire Wire Line
	2650 950  2650 1000
Wire Wire Line
	2450 6300 2050 6300
Text Label 2050 6300 0    50   ~ 0
SWDCLK
Wire Wire Line
	2450 6400 2050 6400
Wire Wire Line
	2450 6500 2050 6500
Text Label 2050 6400 0    50   ~ 0
SWDIO
Text Label 2050 6500 0    50   ~ 0
SWO
Wire Wire Line
	2200 2700 2550 2700
Connection ~ 2200 2700
Text Label 2600 2800 2    50   ~ 0
SWDIO
Wire Wire Line
	2100 2900 2300 2900
Text Label 2300 2900 2    50   ~ 0
SWO
Text Label 2550 2700 2    50   ~ 0
SWDCLK
$Comp
L Device:C_Small C6
U 1 1 5C06316E
P 1800 6350
F 0 "C6" V 1850 6250 50  0000 C CNN
F 1 "100nF" V 1700 6300 50  0000 C CNN
F 2 "Capacitor_SMD:C_0603_1608Metric_Pad1.05x0.95mm_HandSolder" H 1800 6350 50  0001 C CNN
F 3 "~" H 1800 6350 50  0001 C CNN
	1    1800 6350
	1    0    0    -1  
$EndComp
$Comp
L power:GND #PWR0119
U 1 1 5C063175
P 1800 6600
F 0 "#PWR0119" H 1800 6350 50  0001 C CNN
F 1 "GND" V 1805 6472 50  0000 R CNN
F 2 "" H 1800 6600 50  0001 C CNN
F 3 "" H 1800 6600 50  0001 C CNN
	1    1800 6600
	1    0    0    -1  
$EndComp
Wire Wire Line
	1800 6450 1800 6600
$Comp
L ATeam_ObjDetect_CAN-rescue:R_Small_US-Device R2
U 1 1 5C068904
P 1400 6150
F 0 "R2" V 1195 6150 50  0000 C CNN
F 1 "R_330" V 1286 6150 50  0000 C CNN
F 2 "Resistor_SMD:R_0603_1608Metric_Pad1.05x0.95mm_HandSolder" H 1400 6150 50  0001 C CNN
F 3 "~" H 1400 6150 50  0001 C CNN
	1    1400 6150
	0    1    1    0   
$EndComp
$Comp
L ATeam_ObjDetect_CAN-rescue:R_Small_US-Device R1
U 1 1 5C06B391
P 2200 2200
F 0 "R1" H 2268 2246 50  0000 L CNN
F 1 "1Kohm" H 2268 2155 50  0000 L CNN
F 2 "Resistor_SMD:R_0603_1608Metric_Pad1.05x0.95mm_HandSolder" H 2200 2200 50  0001 C CNN
F 3 "~" H 2200 2200 50  0001 C CNN
	1    2200 2200
	1    0    0    -1  
$EndComp
Wire Wire Line
	1600 6150 1600 5850
Wire Wire Line
	1600 6150 1500 6150
$Comp
L ATeam_ObjDetect_CAN-rescue:R_Small_US-Device R3
U 1 1 5C070899
P 1600 5750
F 0 "R3" H 1668 5796 50  0000 L CNN
F 1 "10Kohm" H 1668 5705 50  0000 L CNN
F 2 "Resistor_SMD:R_0603_1608Metric_Pad1.05x0.95mm_HandSolder" H 1600 5750 50  0001 C CNN
F 3 "~" H 1600 5750 50  0001 C CNN
	1    1600 5750
	1    0    0    -1  
$EndComp
Wire Wire Line
	1600 5650 1600 5500
$Comp
L Switch:SW_Push SW1
U 1 1 5C07401D
P 1100 6350
F 0 "SW1" V 1146 6302 50  0000 R CNN
F 1 "SW_Push" V 1055 6302 50  0000 R CNN
F 2 "Button_Switch_SMD:SW_SPST_TL3305A" H 1100 6550 50  0001 C CNN
F 3 "" H 1100 6550 50  0001 C CNN
	1    1100 6350
	0    -1   -1   0   
$EndComp
Wire Wire Line
	1100 6150 1300 6150
$Comp
L power:GND #PWR0120
U 1 1 5C07F368
P 1100 6650
F 0 "#PWR0120" H 1100 6400 50  0001 C CNN
F 1 "GND" V 1105 6522 50  0000 R CNN
F 2 "" H 1100 6650 50  0001 C CNN
F 3 "" H 1100 6650 50  0001 C CNN
	1    1100 6650
	1    0    0    -1  
$EndComp
Wire Wire Line
	1100 6550 1100 6650
Wire Wire Line
	1600 6150 1800 6150
Wire Wire Line
	1800 6150 1800 6250
Connection ~ 1600 6150
Wire Wire Line
	1800 6150 2450 6150
Connection ~ 1800 6150
Wire Wire Line
	1100 6150 750  6150
Connection ~ 1100 6150
Text Label 750  6150 0    50   ~ 0
SWD_RST
Wire Wire Line
	2100 2500 2550 2500
Text Label 2550 2500 2    50   ~ 0
SWD_RST
$Comp
L Device:L_Small L3
U 1 1 5BFCFFA5
P 5000 5250
F 0 "L3" V 5150 5200 50  0000 L CNN
F 1 "10uH" V 5050 5100 50  0000 L CNN
F 2 "Inductor_SMD:L_0805_2012Metric_Pad1.15x1.40mm_HandSolder" H 5000 5250 50  0001 C CNN
F 3 "~" H 5000 5250 50  0001 C CNN
	1    5000 5250
	0    -1   -1   0   
$EndComp
Wire Wire Line
	3200 7150 3200 7550
Wire Wire Line
	3800 7150 3800 7550
Wire Wire Line
	4650 5250 4900 5250
Wire Wire Line
	4650 5350 5100 5350
Wire Wire Line
	5100 5350 5100 5250
$Comp
L power:GND #PWR0121
U 1 1 5C0065B4
P 5100 5650
F 0 "#PWR0121" H 5100 5400 50  0001 C CNN
F 1 "GND" H 5105 5477 50  0000 C CNN
F 2 "" H 5100 5650 50  0001 C CNN
F 3 "" H 5100 5650 50  0001 C CNN
	1    5100 5650
	1    0    0    -1  
$EndComp
Wire Wire Line
	5100 5550 5100 5650
$Comp
L Device:C_Small C10
U 1 1 5C0065BB
P 5100 5450
F 0 "C10" V 5150 5350 50  0000 C CNN
F 1 "4.7uF" V 5000 5400 50  0000 C CNN
F 2 "Capacitor_SMD:C_0603_1608Metric_Pad1.05x0.95mm_HandSolder" H 5100 5450 50  0001 C CNN
F 3 "~" H 5100 5450 50  0001 C CNN
	1    5100 5450
	1    0    0    -1  
$EndComp
$Comp
L power:GND #PWR0122
U 1 1 5C01E37B
P 5400 5650
F 0 "#PWR0122" H 5400 5400 50  0001 C CNN
F 1 "GND" H 5405 5477 50  0000 C CNN
F 2 "" H 5400 5650 50  0001 C CNN
F 3 "" H 5400 5650 50  0001 C CNN
	1    5400 5650
	1    0    0    -1  
$EndComp
Wire Wire Line
	5400 5550 5400 5650
$Comp
L Device:C_Small C11
U 1 1 5C01E382
P 5400 5450
F 0 "C11" V 5450 5350 50  0000 C CNN
F 1 "100nF" V 5300 5400 50  0000 C CNN
F 2 "Capacitor_SMD:C_0603_1608Metric_Pad1.05x0.95mm_HandSolder" H 5400 5450 50  0001 C CNN
F 3 "~" H 5400 5450 50  0001 C CNN
	1    5400 5450
	1    0    0    -1  
$EndComp
$Comp
L Device:L_Small L4
U 1 1 5C02900E
P 6400 4700
F 0 "L4" V 6350 4650 50  0000 L CNN
F 1 "XuH" V 6450 4550 50  0000 L CNN
F 2 "Inductor_SMD:L_0805_2012Metric_Pad1.15x1.40mm_HandSolder" H 6400 4700 50  0001 C CNN
F 3 "~" H 6400 4700 50  0001 C CNN
	1    6400 4700
	0    -1   -1   0   
$EndComp
Wire Wire Line
	4650 4700 5700 4700
$Comp
L power:GND #PWR0123
U 1 1 5C037C25
P 6250 5650
F 0 "#PWR0123" H 6250 5400 50  0001 C CNN
F 1 "GND" H 6255 5477 50  0000 C CNN
F 2 "" H 6250 5650 50  0001 C CNN
F 3 "" H 6250 5650 50  0001 C CNN
	1    6250 5650
	1    0    0    -1  
$EndComp
Wire Wire Line
	6250 5550 6250 5650
$Comp
L Device:C_Small C13
U 1 1 5C037C2C
P 6250 5450
F 0 "C13" V 6300 5350 50  0000 C CNN
F 1 "10uF" V 6150 5400 50  0000 C CNN
F 2 "Capacitor_SMD:C_0603_1608Metric_Pad1.05x0.95mm_HandSolder" H 6250 5450 50  0001 C CNN
F 3 "~" H 6250 5450 50  0001 C CNN
	1    6250 5450
	1    0    0    -1  
$EndComp
Wire Wire Line
	6250 5350 6250 4700
Connection ~ 6250 4700
Wire Wire Line
	6250 4700 6300 4700
$Comp
L power:GND #PWR0124
U 1 1 5C051F65
P 5700 5650
F 0 "#PWR0124" H 5700 5400 50  0001 C CNN
F 1 "GND" H 5705 5477 50  0000 C CNN
F 2 "" H 5700 5650 50  0001 C CNN
F 3 "" H 5700 5650 50  0001 C CNN
	1    5700 5650
	1    0    0    -1  
$EndComp
Wire Wire Line
	5700 5550 5700 5650
$Comp
L Device:C_Small C12
U 1 1 5C051F6C
P 5700 5450
F 0 "C12" V 5750 5350 50  0000 C CNN
F 1 "100nF" V 5600 5400 50  0000 C CNN
F 2 "Capacitor_SMD:C_0603_1608Metric_Pad1.05x0.95mm_HandSolder" H 5700 5450 50  0001 C CNN
F 3 "~" H 5700 5450 50  0001 C CNN
	1    5700 5450
	1    0    0    -1  
$EndComp
Wire Wire Line
	5700 5350 5700 4700
Connection ~ 5700 4700
Wire Wire Line
	5700 4700 6250 4700
Wire Wire Line
	6500 4700 6600 4700
$Comp
L power:GND #PWR0125
U 1 1 5C06A14A
P 6600 5650
F 0 "#PWR0125" H 6600 5400 50  0001 C CNN
F 1 "GND" H 6605 5477 50  0000 C CNN
F 2 "" H 6600 5650 50  0001 C CNN
F 3 "" H 6600 5650 50  0001 C CNN
	1    6600 5650
	1    0    0    -1  
$EndComp
Wire Wire Line
	6600 5550 6600 5650
$Comp
L Device:C_Small C14
U 1 1 5C06A151
P 6600 5450
F 0 "C14" V 6650 5350 50  0000 C CNN
F 1 "10uF" V 6500 5400 50  0000 C CNN
F 2 "Capacitor_SMD:C_0603_1608Metric_Pad1.05x0.95mm_HandSolder" H 6600 5450 50  0001 C CNN
F 3 "~" H 6600 5450 50  0001 C CNN
	1    6600 5450
	1    0    0    -1  
$EndComp
Wire Wire Line
	6600 4700 6600 4900
$Comp
L power:GND #PWR0126
U 1 1 5C072D0F
P 6950 5650
F 0 "#PWR0126" H 6950 5400 50  0001 C CNN
F 1 "GND" H 6955 5477 50  0000 C CNN
F 2 "" H 6950 5650 50  0001 C CNN
F 3 "" H 6950 5650 50  0001 C CNN
	1    6950 5650
	1    0    0    -1  
$EndComp
Wire Wire Line
	6950 5550 6950 5650
$Comp
L Device:C_Small C15
U 1 1 5C072D16
P 6950 5450
F 0 "C15" V 7000 5350 50  0000 C CNN
F 1 "1uF" V 6850 5400 50  0000 C CNN
F 2 "Capacitor_SMD:C_0603_1608Metric_Pad1.05x0.95mm_HandSolder" H 6950 5450 50  0001 C CNN
F 3 "~" H 6950 5450 50  0001 C CNN
	1    6950 5450
	1    0    0    -1  
$EndComp
Wire Wire Line
	6950 4600 6950 5350
Wire Wire Line
	6950 4300 6950 4600
Connection ~ 6950 4600
Wire Notes Line
	5900 4300 5900 5850
Text Notes 5250 4400 0    50   ~ 0
Close to device
Connection ~ 5100 5350
$Comp
L Device:Fuse F1
U 1 1 5C0078D5
P 4750 900
F 0 "F1" V 4553 900 50  0000 C CNN
F 1 "12.5V/24.5V @1A" V 4650 1050 50  0000 C CNN
F 2 "Fuse:Fuse_0603_1608Metric_Pad1.05x0.95mm_HandSolder" V 4680 900 50  0001 C CNN
F 3 "~" H 4750 900 50  0001 C CNN
	1    4750 900 
	0    1    1    0   
$EndComp
Wire Wire Line
	1950 2050 2200 2050
Wire Wire Line
	1600 2050 1950 2050
Connection ~ 1950 2050
Wire Wire Line
	1950 1950 1950 2050
Wire Wire Line
	8800 2500 8500 2500
Wire Wire Line
	8800 2600 8400 2600
Wire Wire Line
	8800 2400 8500 2400
Text Label 8500 2500 0    50   ~ 0
CAN0_L
$Comp
L power:GND #PWR0127
U 1 1 5C123EDE
P 8400 2600
F 0 "#PWR0127" H 8400 2350 50  0001 C CNN
F 1 "GND" H 8405 2427 50  0000 C CNN
F 2 "" H 8400 2600 50  0001 C CNN
F 3 "" H 8400 2600 50  0001 C CNN
	1    8400 2600
	1    0    0    -1  
$EndComp
Text Label 8500 2400 0    50   ~ 0
CAN0_H
Wire Wire Line
	8800 2300 8400 2300
$Comp
L power:GND #PWR0128
U 1 1 5C13CF96
P 8400 2300
F 0 "#PWR0128" H 8400 2050 50  0001 C CNN
F 1 "GND" H 8405 2127 50  0000 C CNN
F 2 "" H 8400 2300 50  0001 C CNN
F 3 "" H 8400 2300 50  0001 C CNN
	1    8400 2300
	1    0    0    -1  
$EndComp
$Comp
L Connector:DB9_Male J4
U 1 1 5C148BBE
P 10550 2300
F 0 "J4" H 10730 2346 50  0000 L CNN
F 1 "DB9_Male" H 10730 2255 50  0000 L CNN
F 2 "Connector_Dsub:DSUB-9_Male_Horizontal_P2.77x2.84mm_EdgePinOffset9.90mm_Housed_MountingHolesOffset11.32mm" H 10550 2300 50  0001 C CNN
F 3 " ~" H 10550 2300 50  0001 C CNN
	1    10550 2300
	1    0    0    -1  
$EndComp
Wire Wire Line
	10250 2500 9950 2500
Wire Wire Line
	10250 2600 9850 2600
Wire Wire Line
	10250 2400 9950 2400
Text Label 9950 2500 0    50   ~ 0
CAN0_L
$Comp
L power:GND #PWR0129
U 1 1 5C148BC9
P 9850 2600
F 0 "#PWR0129" H 9850 2350 50  0001 C CNN
F 1 "GND" H 9855 2427 50  0000 C CNN
F 2 "" H 9850 2600 50  0001 C CNN
F 3 "" H 9850 2600 50  0001 C CNN
	1    9850 2600
	1    0    0    -1  
$EndComp
Text Label 9950 2400 0    50   ~ 0
CAN0_H
Wire Wire Line
	10250 2300 9850 2300
$Comp
L power:GND #PWR0130
U 1 1 5C148BD1
P 9850 2300
F 0 "#PWR0130" H 9850 2050 50  0001 C CNN
F 1 "GND" H 9855 2127 50  0000 C CNN
F 2 "" H 9850 2300 50  0001 C CNN
F 3 "" H 9850 2300 50  0001 C CNN
	1    9850 2300
	1    0    0    -1  
$EndComp
$Comp
L Connector:DB9_Male J3
U 1 1 5C14EBB7
P 10550 1050
F 0 "J3" H 10730 1096 50  0000 L CNN
F 1 "DB9_Male" H 10730 1005 50  0000 L CNN
F 2 "Connector_Dsub:DSUB-9_Male_Horizontal_P2.77x2.84mm_EdgePinOffset9.90mm_Housed_MountingHolesOffset11.32mm" H 10550 1050 50  0001 C CNN
F 3 " ~" H 10550 1050 50  0001 C CNN
	1    10550 1050
	1    0    0    -1  
$EndComp
Wire Wire Line
	10250 1250 9950 1250
Wire Wire Line
	10250 1350 9850 1350
Wire Wire Line
	10250 1150 9950 1150
Text Label 9950 1250 0    50   ~ 0
CAN1_L
$Comp
L power:GND #PWR0131
U 1 1 5C14EBC2
P 9850 1350
F 0 "#PWR0131" H 9850 1100 50  0001 C CNN
F 1 "GND" H 9855 1177 50  0000 C CNN
F 2 "" H 9850 1350 50  0001 C CNN
F 3 "" H 9850 1350 50  0001 C CNN
	1    9850 1350
	1    0    0    -1  
$EndComp
Text Label 9950 1150 0    50   ~ 0
CAN1_H
Wire Wire Line
	10250 1050 9850 1050
$Comp
L power:GND #PWR0132
U 1 1 5C14EBCA
P 9850 1050
F 0 "#PWR0132" H 9850 800 50  0001 C CNN
F 1 "GND" H 9855 877 50  0000 C CNN
F 2 "" H 9850 1050 50  0001 C CNN
F 3 "" H 9850 1050 50  0001 C CNN
	1    9850 1050
	1    0    0    -1  
$EndComp
$Comp
L power:+3.3V #PWR0133
U 1 1 5C156281
P 6950 4300
F 0 "#PWR0133" H 6950 4150 50  0001 C CNN
F 1 "+3.3V" H 6965 4473 50  0000 C CNN
F 2 "" H 6950 4300 50  0001 C CNN
F 3 "" H 6950 4300 50  0001 C CNN
	1    6950 4300
	1    0    0    -1  
$EndComp
$Comp
L power:+3.3V #PWR0134
U 1 1 5C15620A
P 6600 4300
F 0 "#PWR0134" H 6600 4150 50  0001 C CNN
F 1 "+3.3V" H 6615 4473 50  0000 C CNN
F 2 "" H 6600 4300 50  0001 C CNN
F 3 "" H 6600 4300 50  0001 C CNN
	1    6600 4300
	1    0    0    -1  
$EndComp
Wire Wire Line
	4650 4600 6950 4600
Wire Wire Line
	6600 4300 6600 4700
Connection ~ 6600 4700
$Comp
L power:+3.3V #PWR0142
U 1 1 5C17027C
P 1600 5500
F 0 "#PWR0142" H 1600 5350 50  0001 C CNN
F 1 "+3.3V" H 1615 5673 50  0000 C CNN
F 2 "" H 1600 5500 50  0001 C CNN
F 3 "" H 1600 5500 50  0001 C CNN
	1    1600 5500
	1    0    0    -1  
$EndComp
$Comp
L Interface_CAN_LIN:TJA1051T U3
U 1 1 5C02CD39
P 8750 3900
F 0 "U3" H 9000 3550 50  0000 C CNN
F 1 "TCAN332GDR " H 9100 4250 50  0000 C CNN
F 2 "Package_SO:SOIC-8_3.9x4.9mm_P1.27mm" H 8750 3400 50  0001 C CIN
F 3 "http://www.ti.com/lit/ds/sllseq7d/sllseq7d.pdf" H 8750 3900 50  0001 C CNN
	1    8750 3900
	1    0    0    -1  
$EndComp
Text Label 7450 3700 0    50   ~ 0
CAN0_TX
Text Label 7800 3800 0    50   ~ 0
CAN0_RX
Text Label 10250 3400 2    50   ~ 0
CAN0_H
Text Label 10250 4400 2    50   ~ 0
CAN0_L
$Comp
L ATeam_ObjDetect_CAN-rescue:R_Small_US-Device R4
U 1 1 5C03030D
P 9850 3500
F 0 "R4" H 9650 3500 50  0000 L CNN
F 1 "60ohm" H 9950 3500 50  0000 L CNN
F 2 "Resistor_SMD:R_0603_1608Metric_Pad1.05x0.95mm_HandSolder" H 9850 3500 50  0001 C CNN
F 3 "" H 9850 3500 50  0001 C CNN
	1    9850 3500
	1    0    0    -1  
$EndComp
$Comp
L Device:Jumper_NO_Small JP1
U 1 1 5C030314
P 9850 3750
F 0 "JP1" V 9850 3550 50  0000 L CNN
F 1 "Term_CAN0_0" V 9850 3800 50  0000 L CNN
F 2 "Connector_PinHeader_2.54mm:PinHeader_1x02_P2.54mm_Vertical" H 9850 3750 50  0001 C CNN
F 3 "~" H 9850 3750 50  0001 C CNN
	1    9850 3750
	0    1    1    0   
$EndComp
Wire Wire Line
	9850 3600 9850 3650
Wire Wire Line
	9250 3800 9600 3800
Wire Wire Line
	9250 4000 9600 4000
Wire Wire Line
	9850 3400 10250 3400
Connection ~ 9850 3400
Wire Wire Line
	9600 3400 9850 3400
Wire Wire Line
	9600 4000 9600 4400
$Comp
L power:GND #PWR0101
U 1 1 5C033488
P 8750 4350
F 0 "#PWR0101" H 8750 4100 50  0001 C CNN
F 1 "GND" H 8755 4177 50  0000 C CNN
F 2 "" H 8750 4350 50  0001 C CNN
F 3 "" H 8750 4350 50  0001 C CNN
	1    8750 4350
	1    0    0    -1  
$EndComp
$Comp
L power:+3.3V #PWR0103
U 1 1 5C036875
P 8750 3200
F 0 "#PWR0103" H 8750 3050 50  0001 C CNN
F 1 "+3.3V" H 8765 3373 50  0000 C CNN
F 2 "" H 8750 3200 50  0001 C CNN
F 3 "" H 8750 3200 50  0001 C CNN
	1    8750 3200
	1    0    0    -1  
$EndComp
$Comp
L Device:C_Small C3
U 1 1 5C036933
P 9000 3250
F 0 "C3" V 8900 3200 50  0000 L CNN
F 1 "100nF" V 9100 3150 50  0000 L CNN
F 2 "Capacitor_SMD:C_0603_1608Metric_Pad1.05x0.95mm_HandSolder" H 9000 3250 50  0001 C CNN
F 3 "~" H 9000 3250 50  0001 C CNN
	1    9000 3250
	0    1    1    0   
$EndComp
Wire Wire Line
	8750 3200 8750 3250
Wire Notes Line
	11050 2950 11050 6400
Wire Notes Line
	7300 2950 7300 6400
NoConn ~ 8250 4100
Text Notes 8150 4350 0    50   ~ 0
Not present on the IC
Wire Wire Line
	8750 4300 8750 4350
$Comp
L Device:C_Small C1
U 1 1 5C061883
P 5000 1000
F 0 "C1" H 4908 954 50  0000 R CNN
F 1 "0.1uF" H 4908 1045 50  0000 R CNN
F 2 "Capacitor_SMD:C_0603_1608Metric_Pad1.05x0.95mm_HandSolder" H 5000 1000 50  0001 C CNN
F 3 "~" H 5000 1000 50  0001 C CNN
	1    5000 1000
	-1   0    0    1   
$EndComp
$Comp
L Device:C_Small C2
U 1 1 5C069A68
P 7200 1000
F 0 "C2" H 7108 954 50  0000 R CNN
F 1 "10uF" H 7108 1045 50  0000 R CNN
F 2 "Capacitor_SMD:C_0603_1608Metric_Pad1.05x0.95mm_HandSolder" H 7200 1000 50  0001 C CNN
F 3 "~" H 7200 1000 50  0001 C CNN
	1    7200 1000
	-1   0    0    1   
$EndComp
$Comp
L power:GND #PWR0105
U 1 1 5C06F51A
P 6650 1350
F 0 "#PWR0105" H 6650 1100 50  0001 C CNN
F 1 "GND" H 6655 1177 50  0000 C CNN
F 2 "" H 6650 1350 50  0001 C CNN
F 3 "" H 6650 1350 50  0001 C CNN
	1    6650 1350
	1    0    0    -1  
$EndComp
$Comp
L Device:D_Zener_Small D1
U 1 1 5C0727C3
P 5400 1000
F 0 "D1" V 5354 1068 50  0000 L CNN
F 1 "12.5V/24.5V" V 5445 1068 50  0000 L CNN
F 2 "Diode_SMD:D_SOD-323F" V 5400 1000 50  0001 C CNN
F 3 "~" V 5400 1000 50  0001 C CNN
	1    5400 1000
	0    1    1    0   
$EndComp
Wire Wire Line
	4900 900  5000 900 
Connection ~ 5000 900 
Wire Wire Line
	5000 900  5400 900 
$Comp
L power:GND #PWR0106
U 1 1 5C08A429
P 5000 1150
F 0 "#PWR0106" H 5000 900 50  0001 C CNN
F 1 "GND" H 5005 977 50  0000 C CNN
F 2 "" H 5000 1150 50  0001 C CNN
F 3 "" H 5000 1150 50  0001 C CNN
	1    5000 1150
	1    0    0    -1  
$EndComp
$Comp
L power:GND #PWR0107
U 1 1 5C08A50A
P 5400 1150
F 0 "#PWR0107" H 5400 900 50  0001 C CNN
F 1 "GND" H 5405 977 50  0000 C CNN
F 2 "" H 5400 1150 50  0001 C CNN
F 3 "" H 5400 1150 50  0001 C CNN
	1    5400 1150
	1    0    0    -1  
$EndComp
Wire Wire Line
	5000 1100 5000 1150
Wire Wire Line
	5400 1100 5400 1150
$Comp
L power:GND #PWR0108
U 1 1 5C0937BF
P 7200 1150
F 0 "#PWR0108" H 7200 900 50  0001 C CNN
F 1 "GND" H 7205 977 50  0000 C CNN
F 2 "" H 7200 1150 50  0001 C CNN
F 3 "" H 7200 1150 50  0001 C CNN
	1    7200 1150
	1    0    0    -1  
$EndComp
Wire Wire Line
	7200 1100 7200 1150
$Comp
L power:+3.3V #PWR0109
U 1 1 5C09D0B6
P 7600 900
F 0 "#PWR0109" H 7600 750 50  0001 C CNN
F 1 "+3.3V" H 7615 1073 50  0000 C CNN
F 2 "" H 7600 900 50  0001 C CNN
F 3 "" H 7600 900 50  0001 C CNN
	1    7600 900 
	1    0    0    -1  
$EndComp
$Comp
L ATeam_ObjDetect_CAN-rescue:R_Small_US-Device R5
U 1 1 5C05B01F
P 9850 4300
F 0 "R5" H 9950 4300 50  0000 L CNN
F 1 "60ohm" H 9500 4300 50  0000 L CNN
F 2 "Resistor_SMD:R_0603_1608Metric_Pad1.05x0.95mm_HandSolder" H 9850 4300 50  0001 C CNN
F 3 "" H 9850 4300 50  0001 C CNN
	1    9850 4300
	-1   0    0    1   
$EndComp
$Comp
L Device:Jumper_NO_Small JP2
U 1 1 5C05B026
P 9850 4050
F 0 "JP2" V 9850 4100 50  0000 L CNN
F 1 "Term_CAN0_1" V 9850 3500 50  0000 L CNN
F 2 "Connector_PinHeader_2.54mm:PinHeader_1x02_P2.54mm_Vertical" H 9850 4050 50  0001 C CNN
F 3 "~" H 9850 4050 50  0001 C CNN
	1    9850 4050
	0    -1   -1   0   
$EndComp
Wire Wire Line
	9850 4200 9850 4150
Wire Wire Line
	9600 4400 9850 4400
Wire Wire Line
	9600 3400 9600 3800
Wire Wire Line
	9850 3850 9850 3900
Connection ~ 9850 4400
Wire Wire Line
	9850 4400 10250 4400
$Comp
L Device:C_Small C5
U 1 1 5C085476
P 10050 3900
F 0 "C5" V 10000 3800 50  0000 C CNN
F 1 "4.7nf" V 10000 4100 50  0000 C CNN
F 2 "Capacitor_SMD:C_0603_1608Metric_Pad1.05x0.95mm_HandSolder" H 10050 3900 50  0001 C CNN
F 3 "~" H 10050 3900 50  0001 C CNN
	1    10050 3900
	0    1    1    0   
$EndComp
Wire Wire Line
	9850 3900 9950 3900
Connection ~ 9850 3900
Wire Wire Line
	9850 3900 9850 3950
Wire Wire Line
	10150 3900 10550 3900
$Comp
L power:GND #PWR0111
U 1 1 5C08C1E9
P 10550 3900
F 0 "#PWR0111" H 10550 3650 50  0001 C CNN
F 1 "GND" H 10650 3900 50  0000 C CNN
F 2 "" H 10550 3900 50  0001 C CNN
F 3 "" H 10550 3900 50  0001 C CNN
	1    10550 3900
	1    0    0    -1  
$EndComp
Text Notes 7600 4850 0    50   ~ 0
CAN1: uC <> LEDDARs
$Comp
L Interface_CAN_LIN:TJA1051T U4
U 1 1 5C091D5C
P 8750 5600
F 0 "U4" H 9000 5250 50  0000 C CNN
F 1 "TCAN332GDR " H 9100 5950 50  0000 C CNN
F 2 "Package_SO:SOIC-8_3.9x4.9mm_P1.27mm" H 8750 5100 50  0001 C CIN
F 3 "http://www.ti.com/lit/ds/sllseq7d/sllseq7d.pdf" H 8750 5600 50  0001 C CNN
	1    8750 5600
	1    0    0    -1  
$EndComp
Text Label 10250 5100 2    50   ~ 0
CAN1_H
Text Label 10250 6100 2    50   ~ 0
CAN1_L
$Comp
L ATeam_ObjDetect_CAN-rescue:R_Small_US-Device R6
U 1 1 5C091D69
P 9850 5200
F 0 "R6" H 9650 5200 50  0000 L CNN
F 1 "60ohm" H 9950 5200 50  0000 L CNN
F 2 "Resistor_SMD:R_0603_1608Metric_Pad1.05x0.95mm_HandSolder" H 9850 5200 50  0001 C CNN
F 3 "" H 9850 5200 50  0001 C CNN
	1    9850 5200
	1    0    0    -1  
$EndComp
$Comp
L Device:Jumper_NO_Small JP3
U 1 1 5C091D70
P 9850 5450
F 0 "JP3" V 9850 5250 50  0000 L CNN
F 1 "Term_CAN1_0" V 9850 5500 50  0000 L CNN
F 2 "Connector_PinHeader_2.54mm:PinHeader_1x02_P2.54mm_Vertical" H 9850 5450 50  0001 C CNN
F 3 "~" H 9850 5450 50  0001 C CNN
	1    9850 5450
	0    1    1    0   
$EndComp
Wire Wire Line
	9850 5300 9850 5350
Wire Wire Line
	9250 5500 9600 5500
Wire Wire Line
	9250 5700 9600 5700
Wire Wire Line
	9850 5100 10250 5100
Connection ~ 9850 5100
Wire Wire Line
	9600 5100 9850 5100
Wire Wire Line
	9600 5700 9600 6100
$Comp
L power:GND #PWR0112
U 1 1 5C091D7E
P 8750 6050
F 0 "#PWR0112" H 8750 5800 50  0001 C CNN
F 1 "GND" H 8755 5877 50  0000 C CNN
F 2 "" H 8750 6050 50  0001 C CNN
F 3 "" H 8750 6050 50  0001 C CNN
	1    8750 6050
	1    0    0    -1  
$EndComp
NoConn ~ 8250 5800
Text Notes 8200 6050 0    50   ~ 0
Not present on the IC
Wire Wire Line
	8750 6000 8750 6050
$Comp
L ATeam_ObjDetect_CAN-rescue:R_Small_US-Device R7
U 1 1 5C091D96
P 9850 6000
F 0 "R7" H 9950 6000 50  0000 L CNN
F 1 "60ohm" H 9500 6000 50  0000 L CNN
F 2 "Resistor_SMD:R_0603_1608Metric_Pad1.05x0.95mm_HandSolder" H 9850 6000 50  0001 C CNN
F 3 "" H 9850 6000 50  0001 C CNN
	1    9850 6000
	-1   0    0    1   
$EndComp
$Comp
L Device:Jumper_NO_Small JP4
U 1 1 5C091D9D
P 9850 5750
F 0 "JP4" V 9850 5800 50  0000 L CNN
F 1 "Term_CAN1_1" V 9850 5200 50  0000 L CNN
F 2 "Connector_PinHeader_2.54mm:PinHeader_1x02_P2.54mm_Vertical" H 9850 5750 50  0001 C CNN
F 3 "~" H 9850 5750 50  0001 C CNN
	1    9850 5750
	0    -1   -1   0   
$EndComp
Wire Wire Line
	9850 5900 9850 5850
Wire Wire Line
	9600 6100 9850 6100
Wire Wire Line
	9600 5100 9600 5500
Wire Wire Line
	9850 5550 9850 5600
Connection ~ 9850 6100
Wire Wire Line
	9850 6100 10250 6100
$Comp
L Device:C_Small C7
U 1 1 5C091DAA
P 10050 5600
F 0 "C7" V 10000 5500 50  0000 C CNN
F 1 "4.7nf" V 10000 5800 50  0000 C CNN
F 2 "Capacitor_SMD:C_0603_1608Metric_Pad1.05x0.95mm_HandSolder" H 10050 5600 50  0001 C CNN
F 3 "~" H 10050 5600 50  0001 C CNN
	1    10050 5600
	0    1    1    0   
$EndComp
Wire Wire Line
	9850 5600 9950 5600
Connection ~ 9850 5600
Wire Wire Line
	9850 5600 9850 5650
Wire Wire Line
	10150 5600 10550 5600
$Comp
L power:GND #PWR0114
U 1 1 5C091DB5
P 10550 5600
F 0 "#PWR0114" H 10550 5350 50  0001 C CNN
F 1 "GND" H 10650 5600 50  0000 C CNN
F 2 "" H 10550 5600 50  0001 C CNN
F 3 "" H 10550 5600 50  0001 C CNN
	1    10550 5600
	1    0    0    -1  
$EndComp
NoConn ~ 10250 1900
NoConn ~ 10250 2000
NoConn ~ 10250 2100
NoConn ~ 10250 2200
NoConn ~ 10250 2700
NoConn ~ 10250 650 
NoConn ~ 10250 750 
NoConn ~ 10250 850 
NoConn ~ 10250 950 
NoConn ~ 10250 1450
NoConn ~ 8800 1900
NoConn ~ 8800 2000
NoConn ~ 8800 2100
NoConn ~ 8800 2200
NoConn ~ 8800 2700
NoConn ~ 2100 3000
$Comp
L Device:C_Small C8
U 1 1 5C055528
P 1050 4400
F 0 "C8" V 821 4400 50  0000 C CNN
F 1 "21pF" V 912 4400 50  0000 C CNN
F 2 "Capacitor_SMD:C_0603_1608Metric_Pad1.05x0.95mm_HandSolder" H 1050 4400 50  0001 C CNN
F 3 "~" H 1050 4400 50  0001 C CNN
	1    1050 4400
	0    1    1    0   
$EndComp
$Comp
L Device:C_Small C9
U 1 1 5C060199
P 1050 4600
F 0 "C9" V 1300 4600 50  0000 C CNN
F 1 "21pF" V 1200 4600 50  0000 C CNN
F 2 "Capacitor_SMD:C_0603_1608Metric_Pad1.05x0.95mm_HandSolder" H 1050 4600 50  0001 C CNN
F 3 "~" H 1050 4600 50  0001 C CNN
	1    1050 4600
	0    1    1    0   
$EndComp
Wire Wire Line
	950  4600 800  4600
Wire Wire Line
	950  4400 800  4400
Wire Wire Line
	800  4400 800  4600
$Comp
L power:GND #PWR0115
U 1 1 5C0848D3
P 800 4600
F 0 "#PWR0115" H 800 4350 50  0001 C CNN
F 1 "GND" H 805 4427 50  0000 C CNN
F 2 "" H 800 4600 50  0001 C CNN
F 3 "" H 800 4600 50  0001 C CNN
	1    800  4600
	1    0    0    -1  
$EndComp
Connection ~ 800  4600
Wire Wire Line
	8750 3250 8900 3250
Wire Wire Line
	8750 3250 8750 3500
Connection ~ 8750 3250
Wire Wire Line
	9100 3250 9250 3250
$Comp
L power:GND #PWR0113
U 1 1 5C0AEC08
P 9250 3250
F 0 "#PWR0113" H 9250 3000 50  0001 C CNN
F 1 "GND" H 9255 3077 50  0000 C CNN
F 2 "" H 9250 3250 50  0001 C CNN
F 3 "" H 9250 3250 50  0001 C CNN
	1    9250 3250
	1    0    0    -1  
$EndComp
$Comp
L power:+3.3V #PWR0116
U 1 1 5C0B3987
P 8750 4900
F 0 "#PWR0116" H 8750 4750 50  0001 C CNN
F 1 "+3.3V" H 8765 5073 50  0000 C CNN
F 2 "" H 8750 4900 50  0001 C CNN
F 3 "" H 8750 4900 50  0001 C CNN
	1    8750 4900
	1    0    0    -1  
$EndComp
$Comp
L Device:C_Small C4
U 1 1 5C0B398D
P 9000 4950
F 0 "C4" V 8900 4900 50  0000 L CNN
F 1 "100nF" V 9100 4850 50  0000 L CNN
F 2 "Capacitor_SMD:C_0603_1608Metric_Pad1.05x0.95mm_HandSolder" H 9000 4950 50  0001 C CNN
F 3 "~" H 9000 4950 50  0001 C CNN
	1    9000 4950
	0    1    1    0   
$EndComp
Wire Wire Line
	8750 4900 8750 4950
Wire Wire Line
	8750 4950 8900 4950
Wire Wire Line
	9100 4950 9250 4950
$Comp
L power:GND #PWR0117
U 1 1 5C0B3999
P 9250 4950
F 0 "#PWR0117" H 9250 4700 50  0001 C CNN
F 1 "GND" H 9255 4777 50  0000 C CNN
F 2 "" H 9250 4950 50  0001 C CNN
F 3 "" H 9250 4950 50  0001 C CNN
	1    9250 4950
	1    0    0    -1  
$EndComp
Wire Wire Line
	8750 4950 8750 5200
Connection ~ 8750 4950
Wire Wire Line
	4650 4900 5400 4900
Wire Wire Line
	5400 4900 5400 5350
$Comp
L ATeam_ObjDetect_CAN-rescue:BD433M5FP-CE2-Custom_voltage_regulator U1
U 1 1 5C0F060F
P 6650 1100
F 0 "U1" H 6650 1565 50  0000 C CNN
F 1 "BD433M5FP-CE2" H 6650 1474 50  0000 C CNN
F 2 "Package_TO_SOT_SMD:TO-252-2" H 6650 1100 50  0001 C CNN
F 3 "http://rohmfs.rohm.com/en/products/databook/datasheet/ic/power/linear_regulator/bd4xxm5xxx-c-e.pdf" H 6650 1100 50  0001 C CNN
	1    6650 1100
	1    0    0    -1  
$EndComp
Wire Wire Line
	7000 900  7200 900 
Connection ~ 7200 900 
Wire Wire Line
	6650 1250 6650 1350
Connection ~ 5400 900 
$Comp
L Device:LED D8
U 1 1 5C0D9D25
P 7550 1300
F 0 "D8" V 7588 1183 50  0000 R CNN
F 1 "LED" V 7497 1183 50  0000 R CNN
F 2 "LED_SMD:LED_0603_1608Metric_Pad1.05x0.95mm_HandSolder" H 7550 1300 50  0001 C CNN
F 3 "~" H 7550 1300 50  0001 C CNN
	1    7550 1300
	0    -1   -1   0   
$EndComp
$Comp
L power:GND #PWR0135
U 1 1 5C0D9D2C
P 7550 1500
F 0 "#PWR0135" H 7550 1250 50  0001 C CNN
F 1 "GND" H 7555 1327 50  0000 C CNN
F 2 "" H 7550 1500 50  0001 C CNN
F 3 "" H 7550 1500 50  0001 C CNN
	1    7550 1500
	1    0    0    -1  
$EndComp
Wire Wire Line
	7550 1450 7550 1500
Wire Wire Line
	7200 900  7550 900 
$Comp
L ATeam_ObjDetect_CAN-rescue:R_Small_US-Device R12
U 1 1 5C0E9988
P 7550 1000
F 0 "R12" H 7618 1046 50  0000 L CNN
F 1 "1.2Kohm" H 7618 955 50  0000 L CNN
F 2 "Resistor_SMD:R_0603_1608Metric_Pad1.05x0.95mm_HandSolder" H 7550 1000 50  0001 C CNN
F 3 "" H 7550 1000 50  0001 C CNN
	1    7550 1000
	1    0    0    -1  
$EndComp
Connection ~ 7550 900 
Wire Wire Line
	7550 900  7600 900 
Wire Wire Line
	7550 1100 7550 1150
Wire Wire Line
	5400 900  6000 900 
$Comp
L Device:LED D7
U 1 1 5C0EF1EB
P 6000 1300
F 0 "D7" V 6038 1183 50  0000 R CNN
F 1 "LED" V 5947 1183 50  0000 R CNN
F 2 "LED_SMD:LED_0603_1608Metric_Pad1.05x0.95mm_HandSolder" H 6000 1300 50  0001 C CNN
F 3 "~" H 6000 1300 50  0001 C CNN
	1    6000 1300
	0    -1   -1   0   
$EndComp
$Comp
L power:GND #PWR0136
U 1 1 5C0EF1F2
P 6000 1500
F 0 "#PWR0136" H 6000 1250 50  0001 C CNN
F 1 "GND" H 6005 1327 50  0000 C CNN
F 2 "" H 6000 1500 50  0001 C CNN
F 3 "" H 6000 1500 50  0001 C CNN
	1    6000 1500
	1    0    0    -1  
$EndComp
Wire Wire Line
	6000 1450 6000 1500
$Comp
L ATeam_ObjDetect_CAN-rescue:R_Small_US-Device R11
U 1 1 5C0EF1F9
P 6000 1000
F 0 "R11" H 6068 1046 50  0000 L CNN
F 1 "1.2Kohm" H 6068 955 50  0000 L CNN
F 2 "Resistor_SMD:R_0603_1608Metric_Pad1.05x0.95mm_HandSolder" H 6000 1000 50  0001 C CNN
F 3 "" H 6000 1000 50  0001 C CNN
	1    6000 1000
	1    0    0    -1  
$EndComp
Wire Wire Line
	6000 1100 6000 1150
Wire Wire Line
	3200 1100 3400 1100
$Comp
L Device:LED D6
U 1 1 5C0F9540
P 4350 1300
F 0 "D6" V 4388 1183 50  0000 R CNN
F 1 "LED" V 4297 1183 50  0000 R CNN
F 2 "LED_SMD:LED_0603_1608Metric_Pad1.05x0.95mm_HandSolder" H 4350 1300 50  0001 C CNN
F 3 "~" H 4350 1300 50  0001 C CNN
	1    4350 1300
	0    -1   -1   0   
$EndComp
$Comp
L power:GND #PWR0137
U 1 1 5C0F9547
P 4350 1500
F 0 "#PWR0137" H 4350 1250 50  0001 C CNN
F 1 "GND" H 4355 1327 50  0000 C CNN
F 2 "" H 4350 1500 50  0001 C CNN
F 3 "" H 4350 1500 50  0001 C CNN
	1    4350 1500
	1    0    0    -1  
$EndComp
Wire Wire Line
	4350 1450 4350 1500
$Comp
L ATeam_ObjDetect_CAN-rescue:R_Small_US-Device R10
U 1 1 5C0F954E
P 4350 1000
F 0 "R10" H 4418 1046 50  0000 L CNN
F 1 "1.2Kohm" H 4418 955 50  0000 L CNN
F 2 "Resistor_SMD:R_0603_1608Metric_Pad1.05x0.95mm_HandSolder" H 4350 1000 50  0001 C CNN
F 3 "" H 4350 1000 50  0001 C CNN
	1    4350 1000
	1    0    0    -1  
$EndComp
Wire Wire Line
	4350 1100 4350 1150
Connection ~ 6000 900 
Wire Wire Line
	6000 900  6300 900 
Wire Wire Line
	4350 900  4600 900 
$Comp
L Device:LED D11
U 1 1 5C1172A0
P 7800 4200
F 0 "D11" V 7838 4083 50  0000 R CNN
F 1 "LED" V 7747 4083 50  0000 R CNN
F 2 "LED_SMD:LED_0603_1608Metric_Pad1.05x0.95mm_HandSolder" H 7800 4200 50  0001 C CNN
F 3 "~" H 7800 4200 50  0001 C CNN
	1    7800 4200
	0    -1   -1   0   
$EndComp
$Comp
L power:GND #PWR0138
U 1 1 5C1172A7
P 7800 4400
F 0 "#PWR0138" H 7800 4150 50  0001 C CNN
F 1 "GND" H 7805 4227 50  0000 C CNN
F 2 "" H 7800 4400 50  0001 C CNN
F 3 "" H 7800 4400 50  0001 C CNN
	1    7800 4400
	1    0    0    -1  
$EndComp
Wire Wire Line
	7800 4350 7800 4400
$Comp
L ATeam_ObjDetect_CAN-rescue:R_Small_US-Device R15
U 1 1 5C1172AE
P 7800 3900
F 0 "R15" H 7868 3946 50  0000 L CNN
F 1 "165ohm" H 7700 3800 50  0000 L CNN
F 2 "Resistor_SMD:R_0603_1608Metric_Pad1.05x0.95mm_HandSolder" H 7800 3900 50  0001 C CNN
F 3 "" H 7800 3900 50  0001 C CNN
	1    7800 3900
	1    0    0    -1  
$EndComp
Wire Wire Line
	7800 4000 7800 4050
$Comp
L Device:LED D9
U 1 1 5C11C918
P 7450 4200
F 0 "D9" V 7488 4083 50  0000 R CNN
F 1 "LED" V 7397 4083 50  0000 R CNN
F 2 "LED_SMD:LED_0603_1608Metric_Pad1.05x0.95mm_HandSolder" H 7450 4200 50  0001 C CNN
F 3 "~" H 7450 4200 50  0001 C CNN
	1    7450 4200
	0    -1   -1   0   
$EndComp
$Comp
L power:GND #PWR0139
U 1 1 5C11C91F
P 7450 4400
F 0 "#PWR0139" H 7450 4150 50  0001 C CNN
F 1 "GND" H 7455 4227 50  0000 C CNN
F 2 "" H 7450 4400 50  0001 C CNN
F 3 "" H 7450 4400 50  0001 C CNN
	1    7450 4400
	1    0    0    -1  
$EndComp
Wire Wire Line
	7450 4350 7450 4400
$Comp
L ATeam_ObjDetect_CAN-rescue:R_Small_US-Device R13
U 1 1 5C11C926
P 7450 3900
F 0 "R13" H 7518 3946 50  0000 L CNN
F 1 "165ohm" H 7350 3800 50  0000 L CNN
F 2 "Resistor_SMD:R_0603_1608Metric_Pad1.05x0.95mm_HandSolder" H 7450 3900 50  0001 C CNN
F 3 "" H 7450 3900 50  0001 C CNN
	1    7450 3900
	1    0    0    -1  
$EndComp
Wire Wire Line
	7450 4000 7450 4050
Wire Wire Line
	7450 3700 7450 3800
Wire Wire Line
	7450 3700 8250 3700
Wire Wire Line
	7800 3800 8250 3800
Text Label 7450 5400 0    50   ~ 0
CAN1_TX
Text Label 7800 5500 0    50   ~ 0
CAN1_RX
$Comp
L Device:LED D12
U 1 1 5C133450
P 7800 5900
F 0 "D12" V 7838 5783 50  0000 R CNN
F 1 "LED" V 7747 5783 50  0000 R CNN
F 2 "LED_SMD:LED_0603_1608Metric_Pad1.05x0.95mm_HandSolder" H 7800 5900 50  0001 C CNN
F 3 "~" H 7800 5900 50  0001 C CNN
	1    7800 5900
	0    -1   -1   0   
$EndComp
$Comp
L power:GND #PWR0140
U 1 1 5C133457
P 7800 6100
F 0 "#PWR0140" H 7800 5850 50  0001 C CNN
F 1 "GND" H 7805 5927 50  0000 C CNN
F 2 "" H 7800 6100 50  0001 C CNN
F 3 "" H 7800 6100 50  0001 C CNN
	1    7800 6100
	1    0    0    -1  
$EndComp
Wire Wire Line
	7800 6050 7800 6100
$Comp
L ATeam_ObjDetect_CAN-rescue:R_Small_US-Device R16
U 1 1 5C13345E
P 7800 5600
F 0 "R16" H 7868 5646 50  0000 L CNN
F 1 "165ohm" H 7700 5500 50  0000 L CNN
F 2 "Resistor_SMD:R_0603_1608Metric_Pad1.05x0.95mm_HandSolder" H 7800 5600 50  0001 C CNN
F 3 "" H 7800 5600 50  0001 C CNN
	1    7800 5600
	1    0    0    -1  
$EndComp
Wire Wire Line
	7800 5700 7800 5750
$Comp
L Device:LED D10
U 1 1 5C133466
P 7450 5900
F 0 "D10" V 7488 5783 50  0000 R CNN
F 1 "LED" V 7397 5783 50  0000 R CNN
F 2 "LED_SMD:LED_0603_1608Metric_Pad1.05x0.95mm_HandSolder" H 7450 5900 50  0001 C CNN
F 3 "~" H 7450 5900 50  0001 C CNN
	1    7450 5900
	0    -1   -1   0   
$EndComp
$Comp
L power:GND #PWR0143
U 1 1 5C13346D
P 7450 6100
F 0 "#PWR0143" H 7450 5850 50  0001 C CNN
F 1 "GND" H 7455 5927 50  0000 C CNN
F 2 "" H 7450 6100 50  0001 C CNN
F 3 "" H 7450 6100 50  0001 C CNN
	1    7450 6100
	1    0    0    -1  
$EndComp
Wire Wire Line
	7450 6050 7450 6100
$Comp
L ATeam_ObjDetect_CAN-rescue:R_Small_US-Device R14
U 1 1 5C133474
P 7450 5600
F 0 "R14" H 7518 5646 50  0000 L CNN
F 1 "165ohm" H 7350 5500 50  0000 L CNN
F 2 "Resistor_SMD:R_0603_1608Metric_Pad1.05x0.95mm_HandSolder" H 7450 5600 50  0001 C CNN
F 3 "" H 7450 5600 50  0001 C CNN
	1    7450 5600
	1    0    0    -1  
$EndComp
Wire Wire Line
	7450 5700 7450 5750
Wire Wire Line
	7450 5400 7450 5500
Wire Wire Line
	7450 5400 8250 5400
Wire Wire Line
	7800 5500 8250 5500
Wire Notes Line
	7300 2950 11050 2950
Wire Notes Line
	7300 4650 11050 4650
Wire Notes Line
	7300 6400 11050 6400
$Comp
L Device:LED D3
U 1 1 5C14C359
P 2600 3200
F 0 "D3" V 2638 3083 50  0000 R CNN
F 1 "LED" V 2547 3083 50  0000 R CNN
F 2 "LED_SMD:LED_0603_1608Metric_Pad1.05x0.95mm_HandSolder" H 2600 3200 50  0001 C CNN
F 3 "~" H 2600 3200 50  0001 C CNN
	1    2600 3200
	0    -1   -1   0   
$EndComp
$Comp
L power:GND #PWR0144
U 1 1 5C14C360
P 2600 3400
F 0 "#PWR0144" H 2600 3150 50  0001 C CNN
F 1 "GND" H 2605 3227 50  0000 C CNN
F 2 "" H 2600 3400 50  0001 C CNN
F 3 "" H 2600 3400 50  0001 C CNN
	1    2600 3400
	1    0    0    -1  
$EndComp
Wire Wire Line
	2600 3350 2600 3400
$Comp
L ATeam_ObjDetect_CAN-rescue:R_Small_US-Device R9
U 1 1 5C14C367
P 2600 2900
F 0 "R9" H 2668 2946 50  0000 L CNN
F 1 "165ohm" H 2668 2855 50  0000 L CNN
F 2 "Resistor_SMD:R_0603_1608Metric_Pad1.05x0.95mm_HandSolder" H 2600 2900 50  0001 C CNN
F 3 "" H 2600 2900 50  0001 C CNN
	1    2600 2900
	1    0    0    -1  
$EndComp
Wire Wire Line
	2600 3000 2600 3050
$Comp
L Device:LED D2
U 1 1 5C1586AF
P 2300 3300
F 0 "D2" V 2338 3183 50  0000 R CNN
F 1 "LED" V 2247 3183 50  0000 R CNN
F 2 "LED_SMD:LED_0603_1608Metric_Pad1.05x0.95mm_HandSolder" H 2300 3300 50  0001 C CNN
F 3 "~" H 2300 3300 50  0001 C CNN
	1    2300 3300
	0    -1   -1   0   
$EndComp
$Comp
L power:GND #PWR0145
U 1 1 5C1586B6
P 2300 3500
F 0 "#PWR0145" H 2300 3250 50  0001 C CNN
F 1 "GND" H 2305 3327 50  0000 C CNN
F 2 "" H 2300 3500 50  0001 C CNN
F 3 "" H 2300 3500 50  0001 C CNN
	1    2300 3500
	1    0    0    -1  
$EndComp
Wire Wire Line
	2300 3450 2300 3500
$Comp
L ATeam_ObjDetect_CAN-rescue:R_Small_US-Device R8
U 1 1 5C1586BD
P 2300 3000
F 0 "R8" H 2368 3046 50  0000 L CNN
F 1 "165ohm" H 2200 2900 50  0000 L CNN
F 2 "Resistor_SMD:R_0603_1608Metric_Pad1.05x0.95mm_HandSolder" H 2300 3000 50  0001 C CNN
F 3 "" H 2300 3000 50  0001 C CNN
	1    2300 3000
	1    0    0    -1  
$EndComp
Wire Wire Line
	2300 3100 2300 3150
Wire Wire Line
	2100 2800 2600 2800
Wire Wire Line
	2450 4500 1750 4500
Wire Wire Line
	1750 4500 1750 4600
$Comp
L ATeam_ObjDetect_CAN-rescue:ATSAME51J19A-AU_64-TQFP-TQFN_0-Custom_MCU_Mircochip_SAME U2
U 1 1 5BFEDEC2
P 3550 5650
F 0 "U2" H 3550 6100 50  0000 C CNN
F 1 "ATSAME51J19A-AU_64-TQFP-TQFN_0" H 3600 6200 50  0000 C CNN
F 2 "Package_QFP:TQFP-64_10x10mm_P0.5mm" H 2650 6500 50  0001 C CNN
F 3 "http://ww1.microchip.com/downloads/en/DeviceDoc/60001507C.pdf" H 2650 6500 50  0001 C CNN
	1    3550 5650
	1    0    0    -1  
$EndComp
Text Label 2200 4600 0    50   ~ 0
PA08
Wire Wire Line
	2450 4700 2200 4700
Wire Wire Line
	2450 4800 2200 4800
Wire Wire Line
	2450 4900 2200 4900
Wire Wire Line
	2450 5000 2200 5000
Wire Wire Line
	2450 5100 2200 5100
Wire Wire Line
	2450 5200 1950 5200
Wire Wire Line
	2450 5300 1950 5300
Wire Wire Line
	2450 5400 2200 5400
Wire Wire Line
	2450 5500 2200 5500
Wire Wire Line
	2450 5600 2200 5600
Wire Wire Line
	2450 5700 2200 5700
Wire Wire Line
	2450 5800 2200 5800
Wire Wire Line
	2450 5900 2200 5900
Wire Wire Line
	2450 6000 2200 6000
Text Label 2200 4700 0    50   ~ 0
PA09
Text Label 2200 4800 0    50   ~ 0
PA10
Text Label 2200 4900 0    50   ~ 0
PA11
Text Label 2200 5000 0    50   ~ 0
PA12
Text Label 2200 5100 0    50   ~ 0
PA13
Text Label 2200 5400 0    50   ~ 0
PA16
Text Label 2200 5500 0    50   ~ 0
PA17
Text Label 2200 5600 0    50   ~ 0
PA18
Text Label 2200 5700 0    50   ~ 0
PA19
Text Label 2200 5800 0    50   ~ 0
PA20
Text Label 2200 5900 0    50   ~ 0
PA21
Text Label 2200 6000 0    50   ~ 0
PA27
Wire Wire Line
	2450 4600 2200 4600
Wire Wire Line
	4650 5550 4900 5550
Text Label 4900 5550 2    50   ~ 0
PA02
Wire Wire Line
	4650 5650 4900 5650
Wire Wire Line
	4650 5750 4900 5750
Wire Wire Line
	4650 5850 4900 5850
Wire Wire Line
	4650 5950 4900 5950
Wire Wire Line
	4650 6050 4900 6050
Text Label 4900 5650 2    50   ~ 0
PA03
Text Label 4900 5750 2    50   ~ 0
PA04
Text Label 4900 5850 2    50   ~ 0
PA05
Text Label 4900 5950 2    50   ~ 0
PA06
Text Label 4900 6050 2    50   ~ 0
PA07
Wire Wire Line
	4650 6200 4900 6200
Wire Wire Line
	4650 6300 4900 6300
Wire Wire Line
	4650 6400 4900 6400
Wire Wire Line
	4650 6500 4900 6500
Wire Wire Line
	4650 6600 4900 6600
Wire Wire Line
	4650 6700 4900 6700
Text Label 4900 6200 2    50   ~ 0
PB04
Text Label 4900 6300 2    50   ~ 0
PB05
Text Label 4900 6400 2    50   ~ 0
PB06
Text Label 4900 6500 2    50   ~ 0
PB07
Text Label 4900 6600 2    50   ~ 0
PB08
Text Label 4900 6700 2    50   ~ 0
PB09
Wire Wire Line
	3300 7150 3300 7750
Text Label 3300 7750 1    50   ~ 0
CAN0_TX_PA24
Text Label 3400 7750 1    50   ~ 0
CAN0_RX_PA25
Wire Wire Line
	3400 7150 3400 7750
Wire Wire Line
	3900 7150 3900 7750
Text Label 3900 7750 1    50   ~ 0
CAN1_TX_PB14
Text Label 4000 7750 1    50   ~ 0
CAN1_RX_PB15
Wire Wire Line
	4000 7150 4000 7750
Wire Wire Line
	3050 4150 3050 3900
Text Label 3050 3900 3    50   ~ 0
PB00
Wire Wire Line
	3150 4150 3150 3900
Wire Wire Line
	3250 4150 3250 3900
Wire Wire Line
	3350 4150 3350 3900
Wire Wire Line
	3450 3900 3450 4150
Wire Wire Line
	3550 4150 3550 3900
Wire Wire Line
	3650 4150 3650 3900
Wire Wire Line
	3750 4150 3750 3900
Wire Wire Line
	4050 4150 4050 3900
Text Label 3150 3900 3    50   ~ 0
PB01
Text Label 3250 3900 3    50   ~ 0
PB02
Text Label 3350 3900 3    50   ~ 0
PB03
Text Label 3450 3900 3    50   ~ 0
PB10
Text Label 3550 3900 3    50   ~ 0
PB11
Text Label 3650 3900 3    50   ~ 0
PB16
Text Label 3750 3900 3    50   ~ 0
PB17
Text Label 4050 3900 3    50   ~ 0
PB31
Text Label 4250 1850 0    50   ~ 0
PA08
Wire Wire Line
	4500 1950 4250 1950
Wire Wire Line
	4500 2050 4250 2050
Wire Wire Line
	4500 2150 4250 2150
Wire Wire Line
	4500 2250 4250 2250
Wire Wire Line
	4500 2350 4250 2350
Wire Wire Line
	4500 2650 4250 2650
Wire Wire Line
	4500 2750 4250 2750
Wire Wire Line
	4500 2850 4250 2850
Wire Wire Line
	4500 2950 4250 2950
Wire Wire Line
	4500 3050 4250 3050
Wire Wire Line
	4500 3150 4250 3150
Wire Wire Line
	4500 3250 4250 3250
Text Label 4250 1950 0    50   ~ 0
PA09
Text Label 4250 2050 0    50   ~ 0
PA10
Text Label 4250 2150 0    50   ~ 0
PA11
Text Label 4250 2250 0    50   ~ 0
PA12
Text Label 4250 2350 0    50   ~ 0
PA13
Text Label 4250 2650 0    50   ~ 0
PA16
Text Label 4250 2750 0    50   ~ 0
PA17
Text Label 4250 2850 0    50   ~ 0
PA18
Text Label 4250 2950 0    50   ~ 0
PA19
Text Label 4250 3050 0    50   ~ 0
PA20
Text Label 4250 3150 0    50   ~ 0
PA21
Text Label 4250 3250 0    50   ~ 0
PA27
Wire Wire Line
	4500 1850 4250 1850
Wire Wire Line
	5000 3050 5600 3050
Text Label 5600 3050 2    50   ~ 0
CAN0_TX_PA24
Text Label 5600 2950 2    50   ~ 0
CAN0_RX_PA25
Wire Wire Line
	5000 1850 5350 1850
Wire Wire Line
	5000 1950 5250 1950
Wire Wire Line
	5000 2050 5250 2050
Wire Wire Line
	5000 2150 5250 2150
Wire Wire Line
	5250 2250 5000 2250
Wire Wire Line
	5000 2350 5250 2350
Wire Wire Line
	5000 2450 5250 2450
Wire Wire Line
	5000 2550 5250 2550
Wire Wire Line
	5000 2850 5250 2850
Text Label 5250 1950 2    50   ~ 0
PB01
Text Label 5250 2050 2    50   ~ 0
PB02
Text Label 5250 2150 2    50   ~ 0
PB03
Text Label 5250 2250 2    50   ~ 0
PB10
Text Label 5250 2350 2    50   ~ 0
PB11
Text Label 5250 2450 2    50   ~ 0
PB16
Text Label 5250 2550 2    50   ~ 0
PB17
Text Label 5250 2850 2    50   ~ 0
PB31
Wire Wire Line
	5000 3250 5600 3250
Text Label 5600 3250 2    50   ~ 0
CAN1_TX_PB14
Text Label 5600 3150 2    50   ~ 0
CAN1_RX_PB15
Wire Wire Line
	5000 3150 5600 3150
Wire Wire Line
	5000 2950 5600 2950
NoConn ~ 4650 4800
NoConn ~ 4650 5000
Wire Wire Line
	5400 4900 6600 4900
Connection ~ 5400 4900
Connection ~ 6600 4900
Wire Wire Line
	6600 4900 6600 5350
Wire Wire Line
	6050 3050 5800 3050
Text Label 5800 3050 0    50   ~ 0
PA02
Wire Wire Line
	6050 3150 5800 3150
Wire Wire Line
	6050 3250 5800 3250
Wire Wire Line
	6050 3350 5800 3350
Wire Wire Line
	6050 3450 5800 3450
Wire Wire Line
	6050 3550 5800 3550
Text Label 5800 3150 0    50   ~ 0
PA03
Text Label 5800 3250 0    50   ~ 0
PA04
Text Label 5800 3350 0    50   ~ 0
PA05
Text Label 5800 3450 0    50   ~ 0
PA06
Text Label 5800 3550 0    50   ~ 0
PA07
Wire Wire Line
	6550 3050 6800 3050
Wire Wire Line
	6550 3150 6800 3150
Wire Wire Line
	6550 3250 6800 3250
Wire Wire Line
	6550 3350 6800 3350
Wire Wire Line
	6550 3450 6800 3450
Wire Wire Line
	6550 3550 6800 3550
Text Label 6800 3050 2    50   ~ 0
PB04
Text Label 6800 3150 2    50   ~ 0
PB05
Text Label 6800 3250 2    50   ~ 0
PB06
Text Label 6800 3350 2    50   ~ 0
PB07
Text Label 6800 3450 2    50   ~ 0
PB08
Text Label 6800 3550 2    50   ~ 0
PB09
$Comp
L Connector_Generic:Conn_01x02 J10
U 1 1 5C9CFD55
P 6300 2500
F 0 "J10" H 6380 2492 50  0000 L CNN
F 1 "CAN1" H 6380 2401 50  0000 L CNN
F 2 "Connector_PinHeader_2.54mm:PinHeader_1x02_P2.54mm_Vertical" H 6300 2500 50  0001 C CNN
F 3 "~" H 6300 2500 50  0001 C CNN
	1    6300 2500
	1    0    0    -1  
$EndComp
Wire Wire Line
	6100 2500 5800 2500
Text Label 5800 2500 0    50   ~ 0
CAN1_L
Wire Wire Line
	6100 2600 5800 2600
Text Label 5800 2600 0    50   ~ 0
CAN1_H
$Comp
L Connector_Generic:Conn_01x02 J9
U 1 1 5CA14087
P 6300 2250
F 0 "J9" H 6380 2242 50  0000 L CNN
F 1 "CAN0" H 6380 2151 50  0000 L CNN
F 2 "Connector_PinHeader_2.54mm:PinHeader_1x02_P2.54mm_Vertical" H 6300 2250 50  0001 C CNN
F 3 "~" H 6300 2250 50  0001 C CNN
	1    6300 2250
	1    0    0    -1  
$EndComp
Wire Wire Line
	6100 2250 5800 2250
Text Label 5800 2250 0    50   ~ 0
CAN0_L
Wire Wire Line
	6100 2350 5800 2350
Text Label 5800 2350 0    50   ~ 0
CAN0_H
$Comp
L power:GND #PWR0146
U 1 1 5CAFDBF5
P 3300 1750
F 0 "#PWR0146" H 3300 1500 50  0001 C CNN
F 1 "GND" H 3400 1750 50  0000 C CNN
F 2 "" H 3300 1750 50  0001 C CNN
F 3 "" H 3300 1750 50  0001 C CNN
	1    3300 1750
	1    0    0    -1  
$EndComp
Wire Wire Line
	3250 1750 3300 1750
Wire Wire Line
	4350 900  4000 900 
Connection ~ 4350 900 
Text Label 4000 900  0    50   ~ 0
VIN
Text Label 3400 1100 2    50   ~ 0
VIN
$Comp
L Device:LED D13
U 1 1 5CDE3118
P 2550 3900
F 0 "D13" H 2600 4000 50  0000 R CNN
F 1 "LED" H 2600 3800 50  0000 R CNN
F 2 "LED_SMD:LED_0603_1608Metric_Pad1.05x0.95mm_HandSolder" H 2550 3900 50  0001 C CNN
F 3 "~" H 2550 3900 50  0001 C CNN
	1    2550 3900
	1    0    0    -1  
$EndComp
$Comp
L power:GND #PWR0149
U 1 1 5CDE311F
P 2200 3900
F 0 "#PWR0149" H 2200 3650 50  0001 C CNN
F 1 "GND" H 2205 3727 50  0000 C CNN
F 2 "" H 2200 3900 50  0001 C CNN
F 3 "" H 2200 3900 50  0001 C CNN
	1    2200 3900
	1    0    0    -1  
$EndComp
$Comp
L ATeam_ObjDetect_CAN-rescue:R_Small_US-Device R17
U 1 1 5CDE3126
P 2850 3900
F 0 "R17" V 2750 3850 50  0000 L CNN
F 1 "165ohm" V 2950 3700 50  0000 L CNN
F 2 "Resistor_SMD:R_0603_1608Metric_Pad1.05x0.95mm_HandSolder" H 2850 3900 50  0001 C CNN
F 3 "" H 2850 3900 50  0001 C CNN
	1    2850 3900
	0    1    1    0   
$EndComp
Wire Wire Line
	2750 3900 2700 3900
Wire Wire Line
	2950 3900 3050 3900
Wire Wire Line
	2200 3900 2400 3900
$Comp
L Connector_Generic:Conn_02x03_Odd_Even J6
U 1 1 5CEEFBE8
P 2950 1650
F 0 "J6" H 3000 1967 50  0000 C CNN
F 1 "Power" H 3000 1876 50  0000 C CNN
F 2 "Connector_PinHeader_2.54mm:PinHeader_2x03_P2.54mm_Vertical" H 2950 1650 50  0001 C CNN
F 3 "~" H 2950 1650 50  0001 C CNN
	1    2950 1650
	1    0    0    -1  
$EndComp
$Comp
L Connector_Generic:Conn_02x15_Odd_Even J7
U 1 1 5CEEFF69
P 4700 2550
F 0 "J7" H 4750 3467 50  0000 C CNN
F 1 "IO_digital" H 4750 3376 50  0000 C CNN
F 2 "Connector_PinHeader_2.54mm:PinHeader_2x15_P2.54mm_Vertical" H 4700 2550 50  0001 C CNN
F 3 "~" H 4700 2550 50  0001 C CNN
	1    4700 2550
	1    0    0    -1  
$EndComp
$Comp
L Connector_Generic:Conn_02x06_Odd_Even J8
U 1 1 5CEF02D4
P 6250 3250
F 0 "J8" H 6300 3667 50  0000 C CNN
F 1 "IO_analogue" H 6300 3576 50  0000 C CNN
F 2 "Connector_PinHeader_2.54mm:PinHeader_2x06_P2.54mm_Vertical" H 6250 3250 50  0001 C CNN
F 3 "~" H 6250 3250 50  0001 C CNN
	1    6250 3250
	1    0    0    -1  
$EndComp
$Comp
L Device:D_Schottky_Small D4
U 1 1 5CF18110
P 2600 1650
F 0 "D4" H 2700 1600 50  0000 C CNN
F 1 "<val>" H 2750 1700 50  0000 C CNN
F 2 "Diode_SMD:D_0603_1608Metric_Pad1.05x0.95mm_HandSolder" V 2600 1650 50  0001 C CNN
F 3 "~" V 2600 1650 50  0001 C CNN
	1    2600 1650
	-1   0    0    1   
$EndComp
Wire Wire Line
	2750 1650 2700 1650
Wire Wire Line
	2250 1650 2500 1650
$Comp
L power:+3.3V #PWR0147
U 1 1 5CF1811C
P 2250 1650
F 0 "#PWR0147" H 2250 1500 50  0001 C CNN
F 1 "+3.3V" H 2265 1823 50  0000 C CNN
F 2 "" H 2250 1650 50  0001 C CNN
F 3 "" H 2250 1650 50  0001 C CNN
	1    2250 1650
	1    0    0    -1  
$EndComp
Wire Wire Line
	3250 1650 3300 1650
Wire Wire Line
	3300 1650 3300 1750
Connection ~ 3300 1750
Wire Wire Line
	3250 1550 3300 1550
Wire Wire Line
	3300 1550 3300 1650
Connection ~ 3300 1650
Wire Wire Line
	2750 1750 2750 1650
Connection ~ 2750 1650
Text Label 1950 1950 0    50   ~ 0
+3.3V_extern
$Comp
L power:GND #PWR0141
U 1 1 5C1346A3
P 5350 1850
F 0 "#PWR0141" H 5350 1600 50  0001 C CNN
F 1 "GND" H 5355 1677 50  0000 C CNN
F 2 "" H 5350 1850 50  0001 C CNN
F 3 "" H 5350 1850 50  0001 C CNN
	1    5350 1850
	1    0    0    -1  
$EndComp
Text Label 1950 5200 0    50   ~ 0
XOSC0_XIN
Text Label 1950 5300 0    50   ~ 0
XOSC0_XOUT
Wire Wire Line
	5000 2650 5350 2650
Wire Wire Line
	5000 2750 5350 2750
Wire Wire Line
	5350 2650 5350 2750
$Comp
L power:GND #PWR0148
U 1 1 5C1795CF
P 5450 2650
F 0 "#PWR0148" H 5450 2400 50  0001 C CNN
F 1 "GND" H 5455 2477 50  0000 C CNN
F 2 "" H 5450 2650 50  0001 C CNN
F 3 "" H 5450 2650 50  0001 C CNN
	1    5450 2650
	1    0    0    -1  
$EndComp
Wire Wire Line
	5350 2650 5450 2650
Connection ~ 5350 2650
Wire Wire Line
	4500 2450 4150 2450
Wire Wire Line
	4500 2550 4150 2550
$Comp
L power:GND #PWR0150
U 1 1 5C1B66D2
P 4050 2500
F 0 "#PWR0150" H 4050 2250 50  0001 C CNN
F 1 "GND" H 4055 2327 50  0000 C CNN
F 2 "" H 4050 2500 50  0001 C CNN
F 3 "" H 4050 2500 50  0001 C CNN
	1    4050 2500
	1    0    0    -1  
$EndComp
Wire Wire Line
	4150 2450 4150 2500
Wire Wire Line
	4150 2500 4050 2500
Wire Wire Line
	4150 2550 4150 2500
Connection ~ 4150 2500
$Comp
L Device:Crystal_Small Y1
U 1 1 5C1E1CE6
P 1200 4500
F 0 "Y1" V 1154 4588 50  0000 L CNN
F 1 "RTC_Crystal" V 1245 4588 50  0000 L CNN
F 2 "Crystal:Crystal_C38-LF_D3.0mm_L8.0mm_Horizontal" H 1200 4500 50  0001 C CNN
F 3 "~" H 1200 4500 50  0001 C CNN
	1    1200 4500
	0    1    1    0   
$EndComp
$Comp
L Device:Crystal_Small Y2
U 1 1 5C1E1DF3
P 3900 3750
F 0 "Y2" H 3900 3525 50  0000 C CNN
F 1 "Crystal" H 3900 3616 50  0000 C CNN
F 2 "Crystal:Crystal_HC49-U_Vertical" H 3900 3750 50  0001 C CNN
F 3 "~" H 3900 3750 50  0001 C CNN
	1    3900 3750
	-1   0    0    1   
$EndComp
Wire Wire Line
	1150 4400 1200 4400
Wire Wire Line
	1150 4600 1200 4600
Connection ~ 1200 4400
Wire Wire Line
	1200 4400 2450 4400
Connection ~ 1200 4600
Wire Wire Line
	1200 4600 1750 4600
Wire Wire Line
	3850 4150 3850 3850
Wire Wire Line
	3850 3850 3800 3850
Wire Wire Line
	3800 3850 3800 3750
Wire Wire Line
	3950 4150 3950 3850
Wire Wire Line
	3950 3850 4000 3850
Wire Wire Line
	4000 3850 4000 3750
Wire Wire Line
	3800 3750 3800 3650
Wire Wire Line
	3800 3650 4250 3650
Connection ~ 3800 3750
$Comp
L Device:C_Small C16
U 1 1 5C363CB3
P 4350 3650
F 0 "C16" V 4400 3550 50  0000 C CNN
F 1 "16pF" V 4300 3500 50  0000 C CNN
F 2 "Capacitor_SMD:C_0603_1608Metric_Pad1.05x0.95mm_HandSolder" H 4350 3650 50  0001 C CNN
F 3 "~" H 4350 3650 50  0001 C CNN
	1    4350 3650
	0    -1   -1   0   
$EndComp
$Comp
L Device:C_Small C17
U 1 1 5C3A5768
P 4350 3850
F 0 "C17" V 4400 3750 50  0000 C CNN
F 1 "16pF" V 4300 3700 50  0000 C CNN
F 2 "Capacitor_SMD:C_0603_1608Metric_Pad1.05x0.95mm_HandSolder" H 4350 3850 50  0001 C CNN
F 3 "~" H 4350 3850 50  0001 C CNN
	1    4350 3850
	0    -1   -1   0   
$EndComp
Wire Wire Line
	4000 3750 4250 3750
Wire Wire Line
	4250 3750 4250 3850
Connection ~ 4000 3750
Wire Wire Line
	4450 3650 4650 3650
Wire Wire Line
	4650 3650 4650 3850
Wire Wire Line
	4650 3850 4450 3850
$Comp
L power:GND #PWR0151
U 1 1 5C3FE4BD
P 4650 3850
F 0 "#PWR0151" H 4650 3600 50  0001 C CNN
F 1 "GND" H 4655 3677 50  0000 C CNN
F 2 "" H 4650 3850 50  0001 C CNN
F 3 "" H 4650 3850 50  0001 C CNN
	1    4650 3850
	1    0    0    -1  
$EndComp
Connection ~ 4650 3850
Text Label 6300 900  2    50   ~ 0
VIN_IN
Wire Wire Line
	2650 750  3000 750 
Wire Wire Line
	3000 750  3000 1100
Wire Wire Line
	2750 1100 2750 1550
Wire Wire Line
	2750 1100 3000 1100
Wire Wire Line
	1950 2050 1950 2150
$Comp
L Device:D_Small D5
U 1 1 5C1A27D7
P 3100 1100
F 0 "D5" H 3100 1000 50  0000 C CNN
F 1 "<val>" H 3100 1200 50  0000 C CNN
F 2 "" V 3100 1100 50  0001 C CNN
F 3 "~" V 3100 1100 50  0001 C CNN
	1    3100 1100
	-1   0    0    1   
$EndComp
Connection ~ 3000 1100
$EndSCHEMATC
