(module LOGO (layer F.Cu)
  (at 0 0)
 (fp_text reference "G***" (at 0 0) (layer F.SilkS) hide
  (effects (font (thickness 0.3)))
  )
  (fp_text value "LOGO" (at 0.75 0) (layer F.SilkS) hide
  (effects (font (thickness 0.3)))
  )
  (fp_poly (pts (xy 90.663889 90.663889) (xy -90.663888 90.663889) (xy -90.663888 0.354865) (xy -90.297999 0.354865) (xy -90.268688 3.383337) (xy -90.191763 6.209637) (xy -90.067224 8.652541) (xy -89.939101 10.156266)
     (xy -88.753313 17.876626) (xy -86.911527 25.392065) (xy -84.442231 32.668793) (xy -81.373915 39.673017) (xy -77.735068 46.370947) (xy -73.554179 52.728791) (xy -68.859737 58.712757) (xy -63.680231 64.289054)
     (xy -58.044150 69.423890) (xy -51.979984 74.083475) (xy -45.516222 78.234017) (xy -38.681352 81.841724) (xy -31.503864 84.872805) (xy -25.185267 86.961807) (xy -22.669557 87.630867) (xy -19.771773 88.303786)
     (xy -16.741122 88.929801) (xy -13.826808 89.458151) (xy -11.278036 89.838071) (xy -10.759722 89.900251) (xy -9.041347 90.040263) (xy -6.780691 90.145589) (xy -4.140192 90.215929) (xy -1.282285 90.250979)
     (xy 1.630592 90.250439) (xy 4.436004 90.214007) (xy 6.971512 90.141382) (xy 9.074682 90.032260) (xy 10.156266 89.939102) (xy 17.859466 88.756947) (xy 25.343457 86.925569) (xy 32.577562 84.475643)
     (xy 39.531106 81.437845) (xy 46.173412 77.842852) (xy 52.473805 73.721338) (xy 58.401608 69.103980) (xy 63.926146 64.021454) (xy 69.016743 58.504436) (xy 73.642722 52.583602) (xy 77.773408 46.289628)
     (xy 81.378125 39.653190) (xy 84.426197 32.704963) (xy 86.886947 25.475625) (xy 88.729700 17.995849) (xy 89.923780 10.296314) (xy 89.939102 10.156266) (xy 90.100247 8.131344) (xy 90.213779 5.583699)
     (xy 90.279697 2.694555) (xy 90.298000 -0.354865) (xy 90.268689 -3.383336) (xy 90.191764 -6.209636) (xy 90.067224 -8.652540) (xy 89.939102 -10.156265) (xy 88.756947 -17.859466) (xy 86.925569 -25.343456)
     (xy 84.475643 -32.577562) (xy 81.437845 -39.531105) (xy 77.842852 -46.173412) (xy 73.721338 -52.473804) (xy 69.103980 -58.401608) (xy 64.021454 -63.926146) (xy 58.504436 -69.016742) (xy 52.583602 -73.642722)
     (xy 46.289628 -77.773408) (xy 39.653190 -81.378124) (xy 32.704963 -84.426196) (xy 25.475625 -86.886946) (xy 17.995849 -88.729699) (xy 10.296314 -89.923780) (xy 10.156266 -89.939101) (xy 8.131344 -90.100247)
     (xy 5.583699 -90.213778) (xy 2.694555 -90.279696) (xy -0.354865 -90.297999) (xy -3.383336 -90.268688) (xy -6.209636 -90.191763) (xy -8.652540 -90.067224) (xy -10.156265 -89.939101) (xy -17.859466 -88.756947)
     (xy -25.343456 -86.925568) (xy -32.577562 -84.475642) (xy -39.531105 -81.437845) (xy -46.173412 -77.842851) (xy -52.473804 -73.721337) (xy -58.401608 -69.103979) (xy -63.926146 -64.021453) (xy -69.016742 -58.504436)
     (xy -73.642722 -52.583602) (xy -77.773408 -46.289627) (xy -81.378124 -39.653189) (xy -84.426196 -32.704963) (xy -86.886946 -25.475624) (xy -88.729699 -17.995849) (xy -89.923780 -10.296313) (xy -89.939101 -10.156265)
     (xy -90.100247 -8.131344) (xy -90.213778 -5.583699) (xy -90.279696 -2.694554) (xy -90.297999 0.354865) (xy -90.663888 0.354865) (xy -90.663888 -90.663888) (xy 90.663889 -90.663888) (xy 90.663889 90.663889) )(layer F.SilkS) (width  0.010000)
  )
  (fp_poly (pts (xy -39.274322 -28.708963) (xy -37.022155 -28.699434) (xy -34.878912 -28.683893) (xy -32.957447 -28.662702) (xy -31.370613 -28.636226) (xy -30.231262 -28.604829) (xy -29.652247 -28.568873) (xy -29.605463 -28.557775)
     (xy -29.426817 -28.206470) (xy -29.037329 -27.292602) (xy -28.474862 -25.913874) (xy -27.777281 -24.167992) (xy -26.982450 -22.152661) (xy -26.128232 -19.965583) (xy -25.252491 -17.704466) (xy -24.393092 -15.467011)
     (xy -23.587898 -13.350926) (xy -22.874773 -11.453912) (xy -22.291582 -9.873677) (xy -21.876187 -8.707923) (xy -21.682740 -8.113888) (xy -21.522843 -7.663094) (xy -21.129347 -6.601862) (xy -20.520641 -4.978777)
     (xy -19.715117 -2.842422) (xy -18.731165 -0.241383) (xy -17.587176 2.775757) (xy -16.301539 6.160414) (xy -14.892647 9.864003) (xy -13.378889 13.837940) (xy -12.602203 15.875000) (xy -12.401418 16.412941)
     (xy -12.018169 17.448838) (xy -11.513179 18.818327) (xy -11.103405 19.931945) (xy -10.423314 21.779351) (xy -9.699464 23.741690) (xy -9.048664 25.502433) (xy -8.808051 26.151959) (xy -7.809675 28.844196)
     (xy -16.693032 28.829186) (xy -19.150883 28.819449) (xy -21.392720 28.799955) (xy -23.316332 28.772447) (xy -24.819504 28.738670) (xy -25.800024 28.700367) (xy -26.137787 28.668078) (xy -26.522682 28.239880)
     (xy -27.035617 27.127716) (xy -27.672699 25.340732) (xy -28.027334 24.226962) (xy -28.550154 22.579573) (xy -29.020417 21.177138) (xy -29.389887 20.158143) (xy -29.610331 19.661072) (xy -29.623557 19.644045)
     (xy -30.041922 19.560448) (xy -31.053651 19.490991) (xy -32.546926 19.435716) (xy -34.409930 19.394666) (xy -36.530844 19.367885) (xy -38.797851 19.355414) (xy -41.099134 19.357298) (xy -43.322874 19.373578)
     (xy -45.357254 19.404299) (xy -47.090456 19.449501) (xy -48.410663 19.509229) (xy -49.206057 19.583525) (xy -49.386196 19.636474) (xy -49.588370 20.076429) (xy -49.932133 21.046979) (xy -50.367458 22.399685)
     (xy -50.793644 23.812500) (xy -51.273269 25.410550) (xy -51.708207 26.788681) (xy -52.046674 27.787055) (xy -52.222302 28.222223) (xy -52.404671 28.388263) (xy -52.798991 28.516610) (xy -53.484652 28.611875)
     (xy -54.541042 28.678672) (xy -56.047550 28.721612) (xy -58.083564 28.745308) (xy -60.728472 28.754373) (xy -61.390062 28.754858) (xy -63.816067 28.748956) (xy -65.997765 28.730535) (xy -67.839466 28.701475)
     (xy -69.245481 28.663654) (xy -70.120119 28.618951) (xy -70.373696 28.578469) (xy -70.297386 28.199241) (xy -70.011677 27.291403) (xy -69.560142 25.984989) (xy -68.986353 24.410034) (xy -68.894911 24.165278)
     (xy -68.176111 22.243294) (xy -67.438282 20.263495) (xy -66.774867 18.476977) (xy -66.334911 17.286111) (xy -65.878598 16.052456) (xy -65.237684 14.329403) (xy -64.439167 12.188867) (xy -63.510047 9.702758)
     (xy -62.477324 6.942989) (xy -62.240342 6.310328) (xy -45.389855 6.310328) (xy -45.232941 6.473052) (xy -44.804047 6.583547) (xy -44.009073 6.651771) (xy -42.753925 6.687681) (xy -40.944504 6.701235)
     (xy -39.534884 6.702778) (xy -37.218019 6.690088) (xy -35.532360 6.648403) (xy -34.403954 6.572303) (xy -33.758845 6.456368) (xy -33.523077 6.295177) (xy -33.518392 6.261806) (xy -33.623317 5.738952)
     (xy -33.898530 4.734826) (xy -34.291409 3.437577) (xy -34.431028 2.998612) (xy -34.863756 1.632205) (xy -35.214101 0.485977) (xy -35.422591 -0.244196) (xy -35.448574 -0.352777) (xy -35.548450 -0.738334)
     (xy -35.766716 -1.482201) (xy -36.121347 -2.642340) (xy -36.630316 -4.276715) (xy -37.311599 -6.443290) (xy -38.183169 -9.200027) (xy -38.598141 -10.509451) (xy -38.887338 -11.437603) (xy -39.117610 -12.103497)
     (xy -39.323858 -12.454308) (xy -39.540983 -12.437214) (xy -39.803887 -11.999394) (xy -40.147472 -11.088023) (xy -40.606641 -9.650281) (xy -41.216293 -7.633343) (xy -41.812617 -5.644444) (xy -42.453741 -3.514819)
     (xy -43.102433 -1.365523) (xy -43.696805 0.598756) (xy -44.174973 2.173331) (xy -44.319120 2.645834) (xy -44.742382 4.031033) (xy -45.101865 5.208690) (xy -45.334977 5.973722) (xy -45.368884 6.085417)
     (xy -45.389855 6.310328) (xy -62.240342 6.310328) (xy -61.367996 3.981472) (xy -60.209063 0.890120) (xy -59.027525 -2.259156) (xy -57.850381 -5.394443) (xy -56.704630 -8.443829) (xy -55.617272 -11.335402)
     (xy -54.615306 -13.997249) (xy -53.725731 -16.357459) (xy -52.975547 -18.344119) (xy -52.391754 -19.885318) (xy -52.001350 -20.909142) (xy -51.831609 -21.343055) (xy -51.552502 -22.045575) (xy -51.141962 -23.149821)
     (xy -50.778017 -24.165277) (xy -50.046663 -26.141982) (xy -49.440409 -27.574210) (xy -48.981913 -28.412075) (xy -48.754976 -28.619495) (xy -48.219173 -28.653682) (xy -47.115177 -28.679674) (xy -45.555841 -28.697834)
     (xy -43.654018 -28.708527) (xy -41.522560 -28.712115) (xy -39.274322 -28.708963) )(layer F.SilkS) (width  0.010000)
  )
  (fp_poly (pts (xy 1.492347 -28.611252) (xy 4.456805 -28.610156) (xy 7.442888 -28.608341) (xy 10.365105 -28.605830) (xy 13.137965 -28.602642) (xy 15.675977 -28.598799) (xy 17.893648 -28.594322) (xy 19.645437 -28.589434)
     (xy 21.460267 -28.573867) (xy 22.683979 -28.530435) (xy 23.430923 -28.442402) (xy 23.815448 -28.293033) (xy 23.951903 -28.065594) (xy 23.962434 -27.957639) (xy 23.981569 -26.966512) (xy 24.000606 -25.394274)
     (xy 24.019368 -23.306159) (xy 24.037680 -20.767405) (xy 24.055364 -17.843247) (xy 24.072246 -14.598922) (xy 24.088147 -11.099666) (xy 24.102892 -7.410715) (xy 24.116305 -3.597305) (xy 24.128210 0.275327)
     (xy 24.138429 4.141945) (xy 24.146787 7.937313) (xy 24.153108 11.596194) (xy 24.157214 15.053353) (xy 24.158930 18.243552) (xy 24.158080 21.101556) (xy 24.154486 23.562129) (xy 24.147974 25.560034)
     (xy 24.138366 27.030035) (xy 24.125486 27.906896) (xy 24.114035 28.134543) (xy 24.017416 28.326685) (xy 23.785838 28.474742) (xy 23.337214 28.584363) (xy 22.589458 28.661198) (xy 21.460480 28.710895)
     (xy 19.868194 28.739104) (xy 17.730511 28.751474) (xy 15.117072 28.753698) (xy 12.698908 28.746325) (xy 10.527057 28.726792) (xy 8.697021 28.697014) (xy 7.304301 28.658907) (xy 6.444398 28.614385)
     (xy 6.204060 28.575000) (xy 6.190655 28.200040) (xy 6.179461 27.181444) (xy 6.170576 25.581130) (xy 6.164096 23.461015) (xy 6.160119 20.883015) (xy 6.158742 17.909049) (xy 6.160062 14.601032)
     (xy 6.164177 11.020883) (xy 6.170798 7.408334) (xy 6.176873 3.618590) (xy 6.178543 0.035879) (xy 6.176049 -3.277045) (xy 6.169634 -6.257427) (xy 6.159538 -8.842513) (xy 6.146003 -10.969547)
     (xy 6.129271 -12.575776) (xy 6.109584 -13.598444) (xy 6.088506 -13.971874) (xy 5.743975 -14.114354) (xy 4.797142 -14.226372) (xy 3.222909 -14.309204) (xy 0.996175 -14.364122) (xy -1.908158 -14.392401)
     (xy -2.223017 -14.393760) (xy -4.592276 -14.403695) (xy -6.754102 -14.414054) (xy -8.598833 -14.424207) (xy -10.016810 -14.433525) (xy -10.898371 -14.441378) (xy -11.113260 -14.444802) (xy -11.353222 -14.479379)
     (xy -11.531747 -14.629092) (xy -11.658015 -14.985109) (xy -11.741208 -15.638595) (xy -11.790503 -16.680716) (xy -11.815082 -18.202640) (xy -11.824124 -20.295532) (xy -11.825632 -21.519444) (xy -11.810152 -24.184863)
     (xy -11.759595 -26.249135) (xy -11.675394 -27.683551) (xy -11.558984 -28.459398) (xy -11.472093 -28.597058) (xy -11.052766 -28.601575) (xy -10.013374 -28.605228) (xy -8.439410 -28.608036) (xy -6.416365 -28.610022)
     (xy -4.029729 -28.611206) (xy -1.364995 -28.611609) (xy 1.492347 -28.611252) )(layer F.SilkS) (width  0.010000)
  )
  (fp_poly (pts (xy 42.686111 17.055533) (xy 42.686111 19.634696) (xy 39.739076 19.586660) (xy 38.300080 19.575012) (xy 37.428335 19.619136) (xy 36.985934 19.751147) (xy 36.834969 20.003163) (xy 36.828659 20.264451)
     (xy 36.904121 20.800974) (xy 37.158890 21.125724) (xy 37.735344 21.289632) (xy 38.775858 21.343627) (xy 39.844802 21.343385) (xy 42.333334 21.325668) (xy 42.333334 23.828042) (xy 39.952084 23.799767)
     (xy 38.445452 23.798906) (xy 37.509278 23.870524) (xy 37.008969 24.060495) (xy 36.809929 24.414691) (xy 36.777084 24.881878) (xy 36.875619 25.459318) (xy 37.256633 25.813831) (xy 38.048239 25.993750)
     (xy 39.378547 26.047404) (xy 39.863889 26.046391) (xy 41.385184 26.038519) (xy 42.329845 26.080068) (xy 42.826750 26.228615) (xy 43.004775 26.541734) (xy 42.992794 27.077001) (xy 42.957520 27.428473)
     (xy 42.828633 28.751389) (xy 38.142058 28.758645) (xy 36.395395 28.739450) (xy 34.914749 28.681784) (xy 33.836759 28.594044) (xy 33.298065 28.484630) (xy 33.265779 28.458953) (xy 33.206105 28.025121)
     (xy 33.156851 27.023707) (xy 33.119721 25.592628) (xy 33.096415 23.869805) (xy 33.088637 21.993155) (xy 33.098090 20.100598) (xy 33.126474 18.330052) (xy 33.136042 17.947834) (xy 33.161111 17.022057)
     (xy 42.686111 17.055533) )(layer F.SilkS) (width  0.010000)
  )
  (fp_poly (pts (xy 51.162856 17.020454) (xy 51.930322 17.241727) (xy 52.108455 17.374306) (xy 52.370978 17.884265) (xy 52.796793 18.887535) (xy 53.314705 20.211976) (xy 53.604015 20.990278) (xy 54.232379 22.706261)
     (xy 54.884542 24.478631) (xy 55.445698 25.995606) (xy 55.582241 26.362615) (xy 55.955578 27.499011) (xy 56.143018 28.355376) (xy 56.105502 28.742839) (xy 55.525024 28.861669) (xy 54.571073 28.867513)
     (xy 53.565802 28.765336) (xy 53.234787 28.698595) (xy 52.668843 28.295337) (xy 52.287245 27.719271) (xy 51.966160 27.213311) (xy 51.462620 26.977122) (xy 50.553477 26.930028) (xy 50.136895 26.941847)
     (xy 49.044720 26.995360) (xy 48.430724 27.120625) (xy 48.068172 27.419410) (xy 47.730325 27.993483) (xy 47.710103 28.031073) (xy 47.249705 28.499035) (xy 46.400031 28.720107) (xy 45.699888 28.762158)
     (xy 44.699758 28.740647) (xy 44.041359 28.640039) (xy 43.918429 28.571109) (xy 43.987683 28.180293) (xy 44.267790 27.268325) (xy 44.708901 25.969674) (xy 45.261162 24.418810) (xy 45.455104 23.891375)
     (xy 49.131121 23.891375) (xy 49.357610 24.165481) (xy 49.989995 24.172827) (xy 50.714120 24.003602) (xy 50.911856 23.536704) (xy 50.903604 23.407990) (xy 50.721888 22.566264) (xy 50.426302 21.671135)
     (xy 50.132219 21.006407) (xy 49.938414 20.947408) (xy 49.751103 21.343056) (xy 49.476820 22.208844) (xy 49.242011 23.141528) (xy 49.131121 23.891375) (xy 45.455104 23.891375) (xy 45.874724 22.750205)
     (xy 46.499736 21.098328) (xy 47.086345 19.597649) (xy 47.584702 18.382639) (xy 47.944954 17.587768) (xy 48.069332 17.374306) (xy 48.606371 17.112274) (xy 49.567800 16.954304) (xy 50.094445 16.933334)
     (xy 51.162856 17.020454) )(layer F.SilkS) (width  0.010000)
  )
  (fp_poly (pts (xy 59.531250 16.938736) (xy 60.709431 16.984359) (xy 61.618151 17.096361) (xy 61.964677 17.203319) (xy 62.236075 17.642942) (xy 62.611646 18.592870) (xy 63.025548 19.878647) (xy 63.181372 20.426999)
     (xy 63.556747 21.682470) (xy 63.881245 22.558441) (xy 64.106015 22.932196) (xy 64.164393 22.896444) (xy 64.337704 22.333481) (xy 64.639550 21.297015) (xy 64.726713 20.990278) (xy 67.380556 20.990278)
     (xy 67.556945 21.166667) (xy 67.733334 20.990278) (xy 67.556945 20.813889) (xy 67.380556 20.990278) (xy 64.726713 20.990278) (xy 65.009975 19.993454) (xy 65.076736 19.755556) (xy 65.817800 17.109723)
     (xy 70.555556 17.048647) (xy 70.555556 28.784383) (xy 69.232639 28.722563) (xy 68.323655 28.671850) (xy 67.763713 28.625344) (xy 67.717288 28.617872) (xy 67.637477 28.271333) (xy 67.579886 27.374568)
     (xy 67.551989 26.082750) (xy 67.552493 25.197090) (xy 67.535140 23.470633) (xy 67.457457 22.310853) (xy 67.330094 21.748385) (xy 67.163699 21.813867) (xy 66.968921 22.537935) (xy 66.857890 23.198741)
     (xy 66.636826 24.285535) (xy 66.364826 25.105658) (xy 66.246012 25.311806) (xy 66.023539 25.690450) (xy 66.065420 25.752778) (xy 66.085926 26.053095) (xy 65.926949 26.812221) (xy 65.805144 27.252084)
     (xy 65.461845 28.203010) (xy 65.059067 28.648579) (xy 64.415496 28.778391) (xy 64.343057 28.780965) (xy 63.464229 28.758269) (xy 62.932036 28.673982) (xy 62.690641 28.293583) (xy 62.350950 27.375991)
     (xy 61.964534 26.073468) (xy 61.697314 25.028592) (xy 61.328702 23.568937) (xy 61.001096 22.406310) (xy 60.757196 21.684898) (xy 60.658167 21.519602) (xy 60.577342 21.846730) (xy 60.520078 22.726317)
     (xy 60.493761 24.005452) (xy 60.495707 24.881985) (xy 60.491374 26.362788) (xy 60.452132 27.571537) (xy 60.385303 28.338692) (xy 60.338929 28.511702) (xy 59.893366 28.688534) (xy 59.035354 28.785009)
     (xy 58.825695 28.790061) (xy 57.502778 28.801242) (xy 57.502778 16.933334) (xy 59.531250 16.938736) )(layer F.SilkS) (width  0.010000)
  )
  (fp_poly (pts (xy 69.207850 -22.674783) (xy 70.246548 -22.616857) (xy 70.329894 -22.608804) (xy 70.448139 -22.268314) (xy 70.487509 -21.383566) (xy 70.456923 -20.110375) (xy 70.365299 -18.604556) (xy 70.221554 -17.021925)
     (xy 70.034608 -15.518294) (xy 69.866330 -14.509783) (xy 68.653762 -9.905121) (xy 66.851184 -5.632760) (xy 64.428694 -1.637572) (xy 61.356391 2.135572) (xy 60.170702 3.365459) (xy 56.357947 6.728936)
     (xy 52.331043 9.422863) (xy 48.072967 11.455147) (xy 43.566696 12.833696) (xy 38.795208 13.566418) (xy 38.100000 13.618242) (xy 36.690417 13.716846) (xy 35.544339 13.809500) (xy 34.849648 13.880563)
     (xy 34.748611 13.897274) (xy 34.116562 13.900021) (xy 33.801771 13.848234) (xy 33.510365 13.681819) (xy 33.332704 13.250870) (xy 33.243978 12.418963) (xy 33.219377 11.049678) (xy 33.220157 10.650148)
     (xy 33.235513 8.867302) (xy 33.299849 7.675093) (xy 33.466350 6.958615) (xy 33.788201 6.602961) (xy 34.318587 6.493226) (xy 35.110692 6.514503) (xy 35.133812 6.515694) (xy 36.658678 6.480277)
     (xy 38.604058 6.273603) (xy 40.717105 5.935113) (xy 42.744972 5.504248) (xy 44.185088 5.103821) (xy 46.762910 4.053534) (xy 49.487984 2.559059) (xy 52.113243 0.761289) (xy 52.916667 0.124572)
     (xy 54.018323 -0.799669) (xy 54.927733 -1.593028) (xy 55.490095 -2.119484) (xy 55.568167 -2.205260) (xy 55.971784 -2.697628) (xy 56.664457 -3.539305) (xy 57.382104 -4.409722) (xy 59.637661 -7.630534)
     (xy 61.341003 -11.177906) (xy 62.512033 -15.107621) (xy 63.170653 -19.475462) (xy 63.273611 -20.921975) (xy 63.416596 -21.854307) (xy 63.677565 -22.452757) (xy 63.742054 -22.509475) (xy 64.213846 -22.593279)
     (xy 65.193624 -22.654686) (xy 66.484086 -22.690723) (xy 67.887929 -22.698413) (xy 69.207850 -22.674783) )(layer F.SilkS) (width  0.010000)
  )
  (fp_poly (pts (xy 53.731477 -22.701957) (xy 54.952023 -22.627022) (xy 55.852840 -22.506543) (xy 56.241134 -22.344632) (xy 56.366360 -21.464160) (xy 56.318732 -20.104198) (xy 56.124699 -18.462075) (xy 55.810710 -16.735121)
     (xy 55.403215 -15.120667) (xy 55.182074 -14.443359) (xy 53.565585 -10.939116) (xy 51.416580 -7.857020) (xy 48.797537 -5.242714) (xy 45.770933 -3.141842) (xy 42.399247 -1.600047) (xy 38.744956 -0.662973)
     (xy 35.941566 -0.387217) (xy 34.535612 -0.390105) (xy 33.732917 -0.526904) (xy 33.451848 -0.771120) (xy 33.394528 -1.300806) (xy 33.363368 -2.331348) (xy 33.357888 -3.658548) (xy 33.377606 -5.078211)
     (xy 33.422039 -6.386138) (xy 33.466820 -7.116242) (xy 33.702582 -7.531906) (xy 34.417067 -7.632719) (xy 34.649580 -7.619434) (xy 37.255428 -7.758797) (xy 39.823856 -8.515082) (xy 42.259362 -9.802051)
     (xy 44.466442 -11.533465) (xy 46.349593 -13.623086) (xy 47.813312 -15.984675) (xy 48.762096 -18.531993) (xy 49.086738 -20.656066) (xy 49.204231 -21.664443) (xy 49.404343 -22.344153) (xy 49.504610 -22.472908)
     (xy 50.077771 -22.616825) (xy 51.101722 -22.700526) (xy 52.383834 -22.727681) (xy 53.731477 -22.701957) )(layer F.SilkS) (width  0.010000)
  )
  (fp_poly (pts (xy 37.375425 -28.277524) (xy 39.175962 -27.455711) (xy 40.597525 -26.215478) (xy 41.609202 -24.662743) (xy 42.180081 -22.903425) (xy 42.279252 -21.043443) (xy 41.875803 -19.188713) (xy 40.938823 -17.445156)
     (xy 39.437401 -15.918688) (xy 39.010420 -15.610416) (xy 37.789679 -14.888056) (xy 36.703917 -14.548011) (xy 35.502493 -14.471636) (xy 34.093774 -14.613223) (xy 32.695111 -14.960082) (xy 32.254211 -15.131631)
     (xy 30.462147 -16.309644) (xy 29.145299 -17.936782) (xy 28.366321 -19.889801) (xy 28.187870 -22.045461) (xy 28.295330 -22.918630) (xy 29.000603 -25.013358) (xy 30.233862 -26.679327) (xy 31.921571 -27.856528)
     (xy 33.990191 -28.484950) (xy 35.226824 -28.575000) (xy 37.375425 -28.277524) )(layer F.SilkS) (width  0.010000)
  )
)
