(module MaleSpade_6.35mm_0.81mm (layer F.Cu) (tedit 5C6400E8)
  (fp_text reference REF** (at 0 3.2) (layer F.SilkS)
    (effects (font (size 1 1) (thickness 0.15)))
  )
  (fp_text value MaleSpade_6.35mm_0.81mm (at 0 -2.4) (layer F.Fab)
    (effects (font (size 1 1) (thickness 0.15)))
  )
  (fp_line (start -3.6 -1) (end 4.1 -1) (layer F.SilkS) (width 0.15))
  (fp_line (start 4.1 -1) (end 4.1 1.6) (layer F.SilkS) (width 0.15))
  (fp_line (start 4.1 1.6) (end -3.6 1.6) (layer F.SilkS) (width 0.15))
  (fp_line (start -3.6 1.6) (end -3.6 -1) (layer F.SilkS) (width 0.15))
  (pad 1 thru_hole circle (at -2.3 0.3) (size 2 2) (drill 1.4) (layers *.Cu *.Mask))
  (pad 2 thru_hole circle (at 2.8 0.3) (size 2 2) (drill 1.4) (layers *.Cu *.Mask))
)
