PCBNEW-LibModule-V1  
# encoding utf-8
Units mm
$INDEX
SOIC127P600X175-8N
$EndINDEX
$MODULE SOIC127P600X175-8N
Po 0 0 0 15 00000000 00000000 ~~
Li SOIC127P600X175-8N
Cd 
Sc 00000000
At SMD
Op 0 0 0
.SolderMask 0
.SolderPaste 0
T0 -1.3715 -3.31561 1.00109 1.00109 0 0.05 N V 21 "SOIC127P600X175-8N"
T1 -0.737065 3.32132 1.00281 1.00281 0 0.05 N V 21 "VAL**"
DC -4.27 -2.005 -4.17 -2.005 0.2 21
DC -1.53 -2.005 -1.43 -2.005 0.2 24
DS -1.95 -2.45 1.95 -2.45 0.127 24
DS -1.95 2.45 1.95 2.45 0.127 24
DS -1.95 -2.45 1.95 -2.45 0.127 21
DS -1.95 2.45 1.95 2.45 0.127 21
DS -1.95 -2.45 -1.95 2.45 0.127 24
DS 1.95 -2.45 1.95 2.45 0.127 24
DS -3.66 -2.7 3.66 -2.7 0.05 26
DS -3.66 2.7 3.66 2.7 0.05 26
DS -3.66 -2.7 -3.66 2.7 0.05 26
DS 3.66 -2.7 3.66 2.7 0.05 26
$PAD
Sh "1" R 1.9 0.6 0 0 0
At SMD N 00888000
.SolderMask 0
.SolderPaste 0
Ne 0 ""
Po -2.455 -1.905
$EndPAD
$PAD
Sh "2" R 1.9 0.6 0 0 0
At SMD N 00888000
.SolderMask 0
.SolderPaste 0
Ne 0 ""
Po -2.455 -0.635
$EndPAD
$PAD
Sh "3" R 1.9 0.6 0 0 0
At SMD N 00888000
.SolderMask 0
.SolderPaste 0
Ne 0 ""
Po -2.455 0.635
$EndPAD
$PAD
Sh "4" R 1.9 0.6 0 0 0
At SMD N 00888000
.SolderMask 0
.SolderPaste 0
Ne 0 ""
Po -2.455 1.905
$EndPAD
$PAD
Sh "5" R 1.9 0.6 0 0 0
At SMD N 00888000
.SolderMask 0
.SolderPaste 0
Ne 0 ""
Po 2.455 1.905
$EndPAD
$PAD
Sh "6" R 1.9 0.6 0 0 0
At SMD N 00888000
.SolderMask 0
.SolderPaste 0
Ne 0 ""
Po 2.455 0.635
$EndPAD
$PAD
Sh "7" R 1.9 0.6 0 0 0
At SMD N 00888000
.SolderMask 0
.SolderPaste 0
Ne 0 ""
Po 2.455 -0.635
$EndPAD
$PAD
Sh "8" R 1.9 0.6 0 0 0
At SMD N 00888000
.SolderMask 0
.SolderPaste 0
Ne 0 ""
Po 2.455 -1.905
$EndPAD
$EndMODULE SOIC127P600X175-8N
