M48
;DRILL file {KiCad (5.0.0)} date 12/14/18 15:02:36
;FORMAT={-:-/ absolute / inch / decimal}
FMAT,2
INCH,TZ
T1C0.1260
%
G90
G05
M72
T1
X7.5197Y-2.7953
X4.3701Y-5.5512
X7.5197Y-5.5512
X4.3701Y-2.7953
T0
M30
