M48
;DRILL file {KiCad (5.0.2)-1} date 27/04/2019 17:58:21
;FORMAT={-:-/ absolute / inch / decimal}
FMAT,2
INCH,TZ
T1C0.0276
T2C0.0394
T3C0.1260
%
G90
G05
T1
X9.6402Y-4.2405
X9.6402Y-4.5405
T2
X7.2048Y-4.5691
X7.2593Y-4.6809
X7.3138Y-4.5691
X7.3683Y-4.6809
X7.4229Y-4.5691
X7.4774Y-4.6809
X7.5319Y-4.5691
X7.5865Y-4.6809
X7.641Y-4.5691
X8.6688Y-4.205
X8.7233Y-4.0932
X8.7778Y-4.205
X8.8324Y-4.0932
X8.8869Y-4.205
X8.9414Y-4.0932
X8.9959Y-4.205
X9.0505Y-4.0932
X9.105Y-4.205
X8.67Y-4.57
X8.7245Y-4.6818
X8.7791Y-4.57
X8.8336Y-4.6818
X8.8881Y-4.57
X8.9426Y-4.6818
X8.9972Y-4.57
X9.0517Y-4.6818
X9.1062Y-4.57
X9.81Y-4.345
X9.81Y-4.445
X7.204Y-4.205
X7.2585Y-4.0932
X7.3131Y-4.205
X7.3676Y-4.0932
X7.4221Y-4.205
X7.4767Y-4.0932
X7.5312Y-4.205
X7.5857Y-4.0932
X7.6402Y-4.205
T3
X6.325Y-3.9
X9.725Y-4.875
X6.325Y-4.875
X6.93Y-4.1491
X7.9143Y-4.1491
X9.725Y-3.9
X6.9307Y-4.625
X7.915Y-4.625
X8.3948Y-4.1491
X9.379Y-4.1491
X8.396Y-4.6259
X9.3802Y-4.6259
T2
X6.4288Y-4.3706G85X6.4288Y-4.4494
G05
X6.5075Y-4.595G85X6.5863Y-4.595
G05
X6.665Y-4.3706G85X6.665Y-4.4494
G05
T0
M30
